[{
    "name": "CAD",
    "phenoFile": "/sc/arion/projects/psychgen/projects/prs/set_based_polygenic_score/script/sql/generate_cad.sql",
    "rscript":"/sc/arion/projects/psychgen/projects/prs/set_based_polygenic_score/script/rscripts/process_cad.R",
    "gwas": "/sc/arion/projects/psychgen/projects/prs/set_based_polygenic_score/data/sumstats/cad.add.160614.website.txt.gz",
    "rsid":"markername",
    "a1":"effect_allele",
    "a2":"noneffect_allele",
    "statistic": "beta",
    "pvalue":"p_dgc",
    "se": "se_dgc",
    "ncol": null,
    "sampleSize": 162973,
    "isBeta":true,
    "xregion":"chr6:25000000-34000000"
},
{
    "name": "LDL",
    "phenoFile": "/sc/arion/projects/psychgen/projects/prs/set_based_polygenic_score/script/sql/generate_ldl.sql",
    "rscript":"/sc/arion/projects/psychgen/projects/prs/set_based_polygenic_score/script/rscripts/process_ldl.R",
    "gwas": "/sc/arion/projects/psychgen/projects/prs/set_based_polygenic_score/data/sumstats/LDL_GLGC_2013.gz",
    "rsid":"rsid",
    "a1":"A1",
    "a2":"A2",
    "statistic": "beta",
    "pvalue":"P-value",
    "se": null,
    "ncol": "N",
    "sampleSize": null,
    "isBeta":true,
    "xregion":"chr6:25000000-34000000"
},
{
    "name": "BMI",
    "phenoFile": "/sc/arion/projects/psychgen/projects/prs/set_based_polygenic_score/script/sql/generate_bmi.sql",
    "rscript":"/sc/arion/projects/psychgen/projects/prs/set_based_polygenic_score/script/rscripts/process_bmi.R",
    "gwas": "/sc/arion/projects/psychgen/projects/prs/set_based_polygenic_score/data/sumstats/GIANT_BMI_EUR.gz",
    "rsid":"SNP",
    "a1":"A1",
    "a2":"A2",
    "statistic": "b",
    "pvalue":"p",
    "se": null,
    "ncol": "N",
    "sampleSize": null,
    "isBeta":true,
    "xregion":"chr6:25000000-34000000"
},
{
    "name": "Alcohol",
    "phenoFile": "/sc/arion/projects/psychgen/projects/prs/set_based_polygenic_score/script/sql/generate_alcohol.sql",
    "rscript":"/sc/arion/projects/psychgen/projects/prs/set_based_polygenic_score/script/rscripts/process_alcohol.R",
    "gwas": "/sc/arion/projects/psychgen/projects/prs/set_based_polygenic_score/data/sumstats/Kranzler_AUDIT_C_2019.chrall.CPRA_b37.gz",
    "rsid":"DBSNP_ID",
    "a1":"ALT",
    "a2":"REF",
    "statistic": "Z",
    "pvalue":"P",
    "se": null,
    "ncol": "N",
    "sampleSize": null,
    "isBeta":true,
    "xregion":"chr6:25000000-34000000"
},
{
    "name": "AD",
    "phenoFile": "/sc/arion/projects/psychgen/projects/prs/set_based_polygenic_score/script/sql/generate_ad.sql",
    "rscript":"/sc/arion/projects/psychgen/projects/prs/set_based_polygenic_score/script/rscripts/process_ad.R",
    "gwas": "/sc/arion/projects/psychgen/projects/prs/set_based_polygenic_score/data/sumstats/Kunkle2019load_stage123.chrall.CPRA_b37.tsv",
    "rsid":"OLD_ID",
    "a1":"ALT",
    "a2":"REF",
    "statistic": "Z",
    "pvalue":"P",
    "se": null,
    "ncol": "N",
    "sampleSize": null,
    "isBeta":true,
    "xregion":"chr6:25000000-34000000,chr19:44409039-46412650"
}]