Phenotype,Symbol,score,ranked,Score
BMI,UCP3,1367.38,335,1
BMI,NR0B2,1009,334,0.99702380952381
BMI,PPARG,919.46,333,0.994047619047619
BMI,MC4R,719.67,332,0.991071428571429
BMI,GHRL,694.67,331,0.988095238095238
BMI,ADRB3,693.3,330,0.985119047619048
BMI,AGRP,692.89,329,0.982142857142857
BMI,ENPP1,688.91,328,0.979166666666667
BMI,CARTPT,686.44,327,0.976190476190476
BMI,POMC,667.17,326,0.973214285714286
BMI,ADRB2,663.43,325,0.970238095238095
BMI,SDC3,655.29,324,0.967261904761905
BMI,GNAS,411.38,323,0.964285714285714
BMI,BRCA2,406.41,322,0.961309523809524
BMI,MIR143,406.32,321,0.958333333333333
BMI,BBIP1,405.62,320,0.955357142857143
BMI,KCNH2,405.36,319,0.952380952380952
BMI,POLG,404.31,318,0.949404761904762
BMI,PRMT7,404.18,317,0.946428571428571
BMI,GLDC,403.91,316,0.943452380952381
BMI,SCN1A,403.9,315,0.94047619047619
BMI,DDHD2,403.53,314,0.9375
BMI,SCAPER,400,313,0.93452380952381
BMI,H19,153.84,312,0.931547619047619
BMI,BDNF-AS,153.79,311,0.928571428571429
BMI,SNHG11,150,310,0.925595238095238
BMI,MIR27B,59.09,309,0.922619047619048
BMI,SLC6A14,55.37,308,0.919642857142857
BMI,AQP7,36.72,307,0.916666666666667
BMI,FTO,34.28,306,0.913690476190476
BMI,CDKAL1,31.99,305,0.910714285714286
BMI,INS,22.53,304,0.907738095238095
BMI,LEP,22.31,303,0.904761904761905
BMI,ADIPOQ,21.53,302,0.901785714285714
BMI,RETN,20.06,301,0.898809523809524
BMI,LEPR,19.73,300,0.895833333333333
BMI,UCP1,18.99,299,0.892857142857143
BMI,CRP,18.66,298,0.889880952380952
BMI,PPARA,18.25,297,0.886904761904762
BMI,NAMPT,18.05,296,0.883928571428571
BMI,GCG,18.02,295,0.880952380952381
BMI,NPY,17.89,294,0.87797619047619
BMI,UCP2,17.87,293,0.875
BMI,IL6,17.72,292,0.87202380952381
BMI,PYY,17.72,292,0.87202380952381
BMI,LIPE,17.49,291,0.869047619047619
BMI,CNR1,17.41,290,0.866071428571429
BMI,SERPINE1,17.3,289,0.863095238095238
BMI,IGF1,17.28,288,0.860119047619048
BMI,HSD11B1,17.27,287,0.857142857142857
BMI,LPL,17.27,287,0.857142857142857
BMI,SHBG,17.26,286,0.854166666666667
BMI,IRS1,17.19,285,0.851190476190476
BMI,TNF,17.14,284,0.848214285714286
BMI,SLC2A4,17.05,283,0.845238095238095
BMI,PLIN1,17,282,0.842261904761905
BMI,APOB,16.98,281,0.839285714285714
BMI,ADIPOR1,16.86,280,0.836309523809524
BMI,FABP4,16.81,279,0.833333333333333
BMI,PTPN1,16.51,278,0.830357142857143
BMI,GPT,16.45,277,0.827380952380952
BMI,ADIPOR2,16.45,277,0.827380952380952
BMI,MC3R,16.45,277,0.827380952380952
BMI,PPARGC1A,16.43,276,0.824404761904762
BMI,SCD,16.12,275,0.821428571428571
BMI,PNPLA2,15.96,274,0.818452380952381
BMI,INSR,15.92,273,0.81547619047619
BMI,FASN,15.88,272,0.8125
BMI,SERPINA12,15.74,271,0.80952380952381
BMI,RBP4,15.69,270,0.806547619047619
BMI,BBS1,15.68,269,0.803571428571429
BMI,DGAT1,15.57,268,0.800595238095238
BMI,HCRT,15.55,267,0.797619047619048
BMI,CCK,15.4,266,0.794642857142857
BMI,IRS2,15.39,265,0.791666666666667
BMI,PNLIP,15.35,264,0.788690476190476
BMI,APOA1,15.34,263,0.785714285714286
BMI,CCL2,15.33,262,0.782738095238095
BMI,GHSR,15.24,261,0.779761904761905
BMI,MCHR1,15.12,260,0.776785714285714
BMI,GNB3,15.04,259,0.773809523809524
BMI,ITLN1,15.01,258,0.770833333333333
BMI,SREBF1,14.83,257,0.767857142857143
BMI,GLP1R,14.54,256,0.764880952380952
BMI,RARRES2,14.43,255,0.761904761904762
BMI,GGT1,14.42,254,0.758928571428571
BMI,IAPP,14.37,253,0.755952380952381
BMI,CFD,14.3,252,0.75297619047619
BMI,ACACA,14.28,251,0.75
BMI,LPIN1,14.25,250,0.74702380952381
BMI,IGFBP1,14.15,249,0.744047619047619
BMI,IGFBP3,14.09,248,0.741071428571429
BMI,COG2,14.08,247,0.738095238095238
BMI,BBS2,14.06,246,0.735119047619048
BMI,ANGPTL4,14.02,245,0.732142857142857
BMI,SIM1,14.02,245,0.732142857142857
BMI,APLN,13.94,244,0.729166666666667
BMI,SOCS3,13.93,243,0.726190476190476
BMI,BBS4,13.9,242,0.723214285714286
BMI,PPARD,13.78,241,0.720238095238095
BMI,PNPLA3,13.6,240,0.717261904761905
BMI,STAT3,13.45,239,0.714285714285714
BMI,NR3C1,13.32,238,0.711309523809524
BMI,SLC27A1,13.31,237,0.708333333333333
BMI,PRKAB1,13.29,236,0.705357142857143
BMI,CIDEA,13.29,236,0.705357142857143
BMI,LIPC,13.24,235,0.702380952380952
BMI,LPA,13.15,234,0.699404761904762
BMI,GH1,12.98,233,0.696428571428571
BMI,GPD1,12.9,232,0.693452380952381
BMI,CRH,12.88,231,0.69047619047619
BMI,C3,12.86,230,0.6875
BMI,FABP2,12.8,229,0.68452380952381
BMI,CEBPA,12.75,228,0.681547619047619
BMI,GIP,12.7,227,0.678571428571429
BMI,PRKAA2,12.69,226,0.675595238095238
BMI,NPY5R,12.64,225,0.672619047619048
BMI,APOE,12.62,224,0.669642857142857
BMI,APOC3,12.62,224,0.669642857142857
BMI,CETP,12.6,223,0.666666666666667
BMI,ACACB,12.53,222,0.663690476190476
BMI,CNR2,12.53,222,0.663690476190476
BMI,CPT1A,12.51,221,0.660714285714286
BMI,PCSK1,12.5,220,0.657738095238095
BMI,GHR,12.42,219,0.654761904761905
BMI,FAAH,12.37,218,0.651785714285714
BMI,GCK,12.28,217,0.648809523809524
BMI,PRKAA1,12.28,217,0.648809523809524
BMI,DPP4,12.01,216,0.645833333333333
BMI,GHRH,11.93,215,0.642857142857143
BMI,TTC8,11.86,214,0.639880952380952
BMI,GCKR,11.77,213,0.636904761904762
BMI,IL18,11.74,212,0.633928571428571
BMI,NR1H4,11.74,212,0.633928571428571
BMI,HTR2C,11.71,211,0.630952380952381
BMI,MTTP,11.64,210,0.62797619047619
BMI,MC5R,11.59,209,0.625
BMI,APOA4,11.44,208,0.62202380952381
BMI,ACSL1,11.42,207,0.619047619047619
BMI,BRS3,11.39,206,0.616071428571429
BMI,CCKAR,11.37,205,0.613095238095238
BMI,CPE,11.3,204,0.610119047619048
BMI,MKKS,11.24,203,0.607142857142857
BMI,GPAM,11.24,203,0.607142857142857
BMI,NR1H2,11.2,202,0.604166666666667
BMI,H2AC18,11.15,201,0.601190476190476
BMI,INPPL1,11.14,200,0.598214285714286
BMI,PHF6,11.08,199,0.595238095238095
BMI,CPT1B,11.01,198,0.592261904761905
BMI,PLTP,11.01,198,0.592261904761905
BMI,HSD11B2,10.99,197,0.589285714285714
BMI,CNTF,10.94,196,0.586309523809524
BMI,CCR6,10.94,196,0.586309523809524
BMI,MC1R,10.9,195,0.583333333333333
BMI,DRD2,10.89,194,0.580357142857143
BMI,PLIN2,10.88,193,0.577380952380952
BMI,AKT1,10.85,192,0.574404761904762
BMI,CAPN10,10.82,191,0.571428571428571
BMI,GAL,10.81,190,0.568452380952381
BMI,JAK2,10.74,189,0.56547619047619
BMI,MLXIPL,10.74,189,0.56547619047619
BMI,NMU,10.73,188,0.5625
BMI,NOS3,10.71,187,0.55952380952381
BMI,SELE,10.71,187,0.55952380952381
BMI,ESRRA,10.65,186,0.556547619047619
BMI,FADS1,10.63,185,0.553571428571429
BMI,IGFBP2,10.63,185,0.553571428571429
BMI,ASIP,10.61,184,0.550595238095238
BMI,MIR21,10.6,183,0.547619047619048
BMI,CS,10.58,182,0.544642857142857
BMI,NR3C2,10.56,181,0.541666666666667
BMI,MFN2,10.52,180,0.538690476190476
BMI,NPY2R,10.48,179,0.535714285714286
BMI,MCHR2,10.44,178,0.532738095238095
BMI,PMCH,10.42,177,0.529761904761905
BMI,SLC17A5,10.33,176,0.526785714285714
BMI,SERPINA3,10.33,176,0.526785714285714
BMI,CAPN5,10.32,175,0.523809523809524
BMI,LEPQTL1,10.31,174,0.520833333333333
BMI,SLC2A2,10.23,173,0.517857142857143
BMI,H6PD,10.22,172,0.514880952380952
BMI,GAPDH,10.21,171,0.511904761904762
BMI,MIR103A1,10.18,170,0.508928571428571
BMI,MIR199A1,10.14,169,0.505952380952381
BMI,SLC2A1,10.13,168,0.50297619047619
BMI,MTOR,10.12,167,0.5
BMI,PON1,10.09,166,0.49702380952381
BMI,TLR2,10.08,165,0.494047619047619
BMI,MIR126,10.06,164,0.491071428571429
BMI,PPARGC1B,10.04,163,0.488095238095238
BMI,DIO2,10.03,162,0.485119047619048
BMI,PTPN2,10.02,161,0.482142857142857
BMI,LCN2,10.01,160,0.479166666666667
BMI,MIR122,9.99,159,0.476190476190476
BMI,LIPG,9.98,158,0.473214285714286
BMI,NPB,9.95,157,0.470238095238095
BMI,HIF1A,9.89,156,0.467261904761905
BMI,MIR155,9.77,155,0.464285714285714
BMI,MIR378A,9.77,155,0.464285714285714
BMI,APOA5,9.73,154,0.461309523809524
BMI,SREBF2,9.66,153,0.458333333333333
BMI,MIR34A,9.66,153,0.458333333333333
BMI,AGT,9.66,153,0.458333333333333
BMI,MIR29A,9.65,152,0.455357142857143
BMI,MIR221,9.64,151,0.452380952380952
BMI,ABCA1,9.63,150,0.449404761904762
BMI,IKBKB,9.62,149,0.446428571428571
BMI,MIR140,9.62,149,0.446428571428571
BMI,PTS,9.62,149,0.446428571428571
BMI,TNFRSF1B,9.62,149,0.446428571428571
BMI,MIR17,9.61,148,0.443452380952381
BMI,MIR146A,9.6,147,0.44047619047619
BMI,FOXC2,9.59,146,0.4375
BMI,IL17A,9.59,146,0.4375
BMI,MSTN,9.58,145,0.43452380952381
BMI,RPS6KB1,9.57,144,0.431547619047619
BMI,LMNA,9.56,143,0.428571428571429
BMI,AHSG,9.53,142,0.425595238095238
BMI,CPT2,9.52,141,0.422619047619048
BMI,CREB1,9.51,140,0.419642857142857
BMI,FABP12,9.51,140,0.419642857142857
BMI,APOA2,9.49,139,0.416666666666667
BMI,LDLR,9.49,139,0.416666666666667
BMI,CYP2E1,9.48,138,0.413690476190476
BMI,LEPROT,9.47,137,0.410714285714286
BMI,CCL5,9.45,136,0.407738095238095
BMI,HMOX1,9.43,135,0.404761904761905
BMI,MIR223,9.43,135,0.404761904761905
BMI,CYP21A2,9.42,134,0.401785714285714
BMI,SOD2,9.36,133,0.398809523809524
BMI,DLK1,9.36,133,0.398809523809524
BMI,MIR27A,9.35,132,0.395833333333333
BMI,AR,9.35,132,0.395833333333333
BMI,MC2R,9.33,131,0.392857142857143
BMI,AOC3,9.32,130,0.389880952380952
BMI,CLOCK,9.29,129,0.386904761904762
BMI,TFAM,9.29,129,0.386904761904762
BMI,MIR222,9.26,128,0.383928571428571
BMI,ADRB1,9.24,127,0.380952380952381
BMI,MIR22,9.24,127,0.380952380952381
BMI,PIK3R1,9.23,126,0.37797619047619
BMI,HNF4A,9.21,125,0.375
BMI,MIR196A1,9.12,124,0.37202380952381
BMI,SRC,9.1,123,0.369047619047619
BMI,MIR423,9.07,122,0.366071428571429
BMI,CAV1,9.07,122,0.366071428571429
BMI,MIR483,9.06,121,0.363095238095238
BMI,PER2,9.04,120,0.360119047619048
BMI,APOC1,9.03,119,0.357142857142857
BMI,FABP1,9.02,118,0.354166666666667
BMI,MIR142,9.02,118,0.354166666666667
BMI,NMB,9.02,118,0.354166666666667
BMI,SLC5A1,9.01,117,0.351190476190476
BMI,SCARB1,9.01,117,0.351190476190476
BMI,TRPV1,9,116,0.348214285714286
BMI,GCGR,8.99,115,0.345238095238095
BMI,ACP1,8.93,114,0.342261904761905
BMI,TRH,8.92,113,0.339285714285714
BMI,IL1B,8.92,113,0.339285714285714
BMI,PPIG,8.92,113,0.339285714285714
BMI,MIR181A1,8.92,113,0.339285714285714
BMI,SLC6A3,8.91,112,0.336309523809524
BMI,KCNJ11,8.9,111,0.333333333333333
BMI,MIR486-1,8.89,110,0.330357142857143
BMI,COMT,8.84,109,0.327380952380952
BMI,PRODH,8.83,108,0.324404761904762
BMI,CYP3A4,8.81,107,0.321428571428571
BMI,KNG1,8.8,106,0.318452380952381
BMI,CISH,8.8,106,0.318452380952381
BMI,NPY1R,8.79,105,0.31547619047619
BMI,MIR30A,8.79,105,0.31547619047619
BMI,DRD4,8.78,104,0.3125
BMI,NTRK2,8.78,104,0.3125
BMI,ALB,8.78,104,0.3125
BMI,FABP3,8.75,103,0.30952380952381
BMI,STAT1,8.74,102,0.306547619047619
BMI,PDE3B,8.72,101,0.303571428571429
BMI,FABP5,8.72,101,0.303571428571429
BMI,FGF21,8.71,100,0.300595238095238
BMI,MIR125A,8.7,99,0.297619047619048
BMI,HTR2A,8.69,98,0.294642857142857
BMI,MIR144,8.69,98,0.294642857142857
BMI,SOCS1,8.67,97,0.291666666666667
BMI,NTS,8.64,96,0.288690476190476
BMI,SIRT1,8.64,96,0.288690476190476
BMI,AGER,8.63,95,0.285714285714286
BMI,AKR1B1,8.63,95,0.285714285714286
BMI,STAT5A,8.62,94,0.282738095238095
BMI,IL15,8.62,94,0.282738095238095
BMI,ADRA2A,8.62,94,0.282738095238095
BMI,REN,8.61,93,0.279761904761905
BMI,NR5A1,8.6,92,0.276785714285714
BMI,ICOSLG,8.6,92,0.276785714285714
BMI,HNF1A,8.58,91,0.273809523809524
BMI,NRF1,8.57,90,0.270833333333333
BMI,THBS1,8.57,90,0.270833333333333
BMI,MMP3,8.56,89,0.267857142857143
BMI,LIPA,8.56,89,0.267857142857143
BMI,BLOC1S1,8.56,89,0.267857142857143
BMI,MIR93,8.56,89,0.267857142857143
BMI,RHOA,8.55,88,0.264880952380952
BMI,MIR193B,8.54,87,0.261904761904762
BMI,MIR342,8.54,87,0.261904761904762
BMI,NR1I3,8.52,86,0.258928571428571
BMI,BCHE,8.5,85,0.255952380952381
BMI,MIR455,8.48,84,0.25297619047619
BMI,TLR4,8.47,83,0.25
BMI,CCL11,8.46,82,0.24702380952381
BMI,LCAT,8.45,81,0.244047619047619
BMI,ACE,8.45,81,0.244047619047619
BMI,MIR28,8.45,81,0.244047619047619
BMI,NPR3,8.44,80,0.241071428571429
BMI,PC,8.44,80,0.241071428571429
BMI,HTR1A,8.42,79,0.238095238095238
BMI,CFH,8.4,78,0.235119047619048
BMI,TFAP2A,8.39,77,0.232142857142857
BMI,FSHR,8.39,77,0.232142857142857
BMI,MAOA,8.38,76,0.229166666666667
BMI,ALOX5,8.37,75,0.226190476190476
BMI,CRHR1,8.36,74,0.223214285714286
BMI,PLIN3,8.36,74,0.223214285714286
BMI,FLT1,8.35,73,0.220238095238095
BMI,F7,8.34,72,0.217261904761905
BMI,ABCC8,8.34,72,0.217261904761905
BMI,ADORA1,8.34,72,0.217261904761905
BMI,KDM4C,8.34,72,0.217261904761905
BMI,IL10,8.33,71,0.214285714285714
BMI,SGK1,8.33,71,0.214285714285714
BMI,CYP1A2,8.33,71,0.214285714285714
BMI,PLA2G7,8.33,71,0.214285714285714
BMI,MIR532,8.32,70,0.211309523809524
BMI,MAPK8,8.32,70,0.211309523809524
BMI,NPS,8.32,70,0.211309523809524
BMI,MIR18A,8.31,69,0.208333333333333
BMI,PTPN11,8.31,69,0.208333333333333
BMI,RXRA,8.3,68,0.205357142857143
BMI,GSTM1,8.24,67,0.202380952380952
BMI,SELL,8.24,67,0.202380952380952
BMI,PRKCZ,8.23,66,0.199404761904762
BMI,FST,8.23,66,0.199404761904762
BMI,ETV3,8.22,65,0.196428571428571
BMI,FGFR1,8.22,65,0.196428571428571
BMI,GAD2,8.22,65,0.196428571428571
BMI,MIR127,8.22,65,0.196428571428571
BMI,SLC2A3,8.21,64,0.193452380952381
BMI,FOXA2,8.2,63,0.19047619047619
BMI,SERPINA6,8.2,63,0.19047619047619
BMI,LIN9,8.2,63,0.19047619047619
BMI,FNDC5,8.19,62,0.1875
BMI,TFRC,8.19,62,0.1875
BMI,PDE5A,8.19,62,0.1875
BMI,AKR1C3,8.16,61,0.18452380952381
BMI,ACTB,8.15,60,0.181547619047619
BMI,SIGLEC5,8.15,60,0.181547619047619
BMI,CXCL8,8.14,59,0.178571428571429
BMI,HRH3,8.13,58,0.175595238095238
BMI,GATA3,8.13,58,0.175595238095238
BMI,HBEGF,8.13,58,0.175595238095238
BMI,ALDH2,8.12,57,0.172619047619048
BMI,PRKG1,8.12,57,0.172619047619048
BMI,NPR1,8.11,56,0.169642857142857
BMI,CYP11A1,8.11,56,0.169642857142857
BMI,PRDM16,8.11,56,0.169642857142857
BMI,EDNRA,8.11,56,0.169642857142857
BMI,NMUR2,8.1,55,0.166666666666667
BMI,HK2,8.08,54,0.163690476190476
BMI,GRP,8.07,53,0.160714285714286
BMI,PCSK2,8.06,52,0.157738095238095
BMI,PAGR1,8.06,52,0.157738095238095
BMI,CRHR2,8.05,51,0.154761904761905
BMI,LRP1,8.04,50,0.151785714285714
BMI,SORBS1,8.04,50,0.151785714285714
BMI,BDNF,8.03,49,0.148809523809524
BMI,PRLHR,8.03,49,0.148809523809524
BMI,TULP1,8.02,48,0.145833333333333
BMI,MIR10A,8.02,48,0.145833333333333
BMI,MIR30E,8.01,47,0.142857142857143
BMI,ENPP2,8.01,47,0.142857142857143
BMI,STAR,8,46,0.139880952380952
BMI,IL6R,7.99,45,0.136904761904762
BMI,FOXO1,7.98,44,0.133928571428571
BMI,MIR675,7.97,43,0.130952380952381
BMI,USF1,7.94,42,0.12797619047619
BMI,LCOR,7.94,42,0.12797619047619
BMI,MIR23B,7.93,41,0.125
BMI,MIR149,7.92,40,0.12202380952381
BMI,G6PC,7.92,40,0.12202380952381
BMI,PHB,7.92,40,0.12202380952381
BMI,ESR1,7.91,39,0.119047619047619
BMI,VEGFA,7.9,38,0.116071428571429
BMI,HFE,7.9,38,0.116071428571429
BMI,MIR193A,7.9,38,0.116071428571429
BMI,LIF,7.89,37,0.113095238095238
BMI,SIRT3,7.86,36,0.110119047619048
BMI,GPRC6A,7.86,36,0.110119047619048
BMI,PRKN,7.85,35,0.107142857142857
BMI,CEBPB,7.83,34,0.104166666666667
BMI,CTSK,7.83,34,0.104166666666667
BMI,SFTPD,7.83,34,0.104166666666667
BMI,MIR136,7.81,33,0.101190476190476
BMI,NOS1,7.79,32,0.0982142857142857
BMI,SLC6A2,7.78,31,0.0952380952380952
BMI,TMEM18,7.77,30,0.0922619047619048
BMI,MGAT1,7.77,30,0.0922619047619048
BMI,PRDM10,7.76,29,0.0892857142857143
BMI,MLN,7.76,29,0.0892857142857143
BMI,ARNTL,7.75,28,0.0863095238095238
BMI,CD4,7.75,28,0.0863095238095238
BMI,HK1,7.74,27,0.0833333333333333
BMI,MIR139,7.74,27,0.0833333333333333
BMI,CNBP,7.74,27,0.0833333333333333
BMI,MT-CYB,7.73,26,0.0803571428571429
BMI,GALP,7.73,26,0.0803571428571429
BMI,UCN,7.73,26,0.0803571428571429
BMI,SH2B1,7.73,26,0.0803571428571429
BMI,CCKBR,7.73,26,0.0803571428571429
BMI,THRA,7.72,25,0.0773809523809524
BMI,TXNRD2,7.72,25,0.0773809523809524
BMI,CLPS,7.71,24,0.0744047619047619
BMI,GFPT1,7.7,23,0.0714285714285714
BMI,PLA2G4A,7.69,22,0.068452380952381
BMI,PROC,7.68,21,0.0654761904761905
BMI,SIRT6,7.68,21,0.0654761904761905
BMI,ICAM1,7.68,21,0.0654761904761905
BMI,VCAM1,7.66,20,0.0625
BMI,IL4,7.66,20,0.0625
BMI,AKR1C2,7.66,20,0.0625
BMI,CYP2A6,7.65,19,0.0595238095238095
BMI,HCRTR2,7.65,19,0.0595238095238095
BMI,FFAR4,7.64,18,0.056547619047619
BMI,TCF7L2,7.64,18,0.056547619047619
BMI,NCOA3,7.63,17,0.0535714285714286
BMI,TLR5,7.63,17,0.0535714285714286
BMI,BMP2K,7.63,17,0.0535714285714286
BMI,SIRT2,7.62,16,0.0505952380952381
BMI,DGAT2,7.62,16,0.0505952380952381
BMI,FFAR2,7.61,15,0.0476190476190476
BMI,SIRT4,7.6,14,0.0446428571428571
BMI,CAT,7.6,14,0.0446428571428571
BMI,GPBAR1,7.6,14,0.0446428571428571
BMI,SIRT5,7.6,14,0.0446428571428571
BMI,OXT,7.59,13,0.0416666666666667
BMI,PTH,7.59,13,0.0416666666666667
BMI,SIRT7,7.59,13,0.0416666666666667
BMI,CTSD,7.58,12,0.0386904761904762
BMI,CYP19A1,7.58,12,0.0386904761904762
BMI,MAOB,7.58,12,0.0386904761904762
BMI,UCN2,7.57,11,0.0357142857142857
BMI,FOS,7.56,10,0.0327380952380952
BMI,NLRP3,7.56,10,0.0327380952380952
BMI,FDFT1,7.56,10,0.0327380952380952
BMI,TP53,7.56,10,0.0327380952380952
BMI,NMUR1,7.56,10,0.0327380952380952
BMI,MIR181C,7.55,9,0.0297619047619048
BMI,JUN,7.55,9,0.0297619047619048
BMI,EDN1,7.54,8,0.0267857142857143
BMI,TLR1,7.54,8,0.0267857142857143
BMI,IGF2,7.53,7,0.0238095238095238
BMI,TLR6,7.53,7,0.0238095238095238
BMI,TLR9,7.52,6,0.0208333333333333
BMI,CSN1S1,7.52,6,0.0208333333333333
BMI,UCN3,7.52,6,0.0208333333333333
BMI,GNPDA2,7.52,6,0.0208333333333333
BMI,TLR3,7.52,6,0.0208333333333333
BMI,PTGS2,7.51,5,0.0178571428571429
BMI,ANPEP,7.51,5,0.0178571428571429
BMI,TLR8,7.51,5,0.0178571428571429
BMI,PRL,7.5,4,0.0148809523809524
BMI,TLR10,7.5,4,0.0148809523809524
BMI,ESRRB,7.49,3,0.0119047619047619
BMI,GOT2,7.49,3,0.0119047619047619
BMI,ITGAX,7.48,2,0.00892857142857143
BMI,TLR7,7.46,1,0.00595238095238095
BMI,CTNNB1,7.46,1,0.00595238095238095
AD,APP,1394.05,424,1
AD,A2M,722.64,423,0.997647058823529
AD,MPO,687.53,422,0.995294117647059
AD,NOS3,683.78,421,0.992941176470588
AD,PLAU,679.54,420,0.990588235294118
AD,HFE,673.97,419,0.988235294117647
AD,PSEN1,483.06,418,0.985882352941176
AD,MIR146A,412.82,417,0.983529411764706
AD,MIR106B,408.96,416,0.981176470588235
AD,MIR29A,363.47,415,0.978823529411765
AD,MIR29B1,363.15,414,0.976470588235294
AD,MIR107,362.39,413,0.974117647058824
AD,MIR34A,356.07,412,0.971764705882353
AD,MIR298,355.1,411,0.969411764705882
AD,MIR328,355.08,410,0.967058823529412
AD,UNC5C,329.68,409,0.964705882352941
AD,BACE1,206.69,408,0.962352941176471
AD,BACE1-AS,171.92,407,0.96
AD,CDKN2B-AS1,162.48,406,0.957647058823529
AD,BCYRN1,155.9,405,0.955294117647059
AD,MIAT,154.65,404,0.952941176470588
AD,HAR1A,154.6,403,0.950588235294118
AD,SOX2-OT,154.53,402,0.948235294117647
AD,LINC01080,154.23,401,0.945882352941177
AD,HAR1B,153.6,400,0.943529411764706
AD,LINC01616,150,399,0.941176470588235
AD,LINC01772,150,399,0.941176470588235
AD,LRP1-AS,150,399,0.941176470588235
AD,SNHG3,150,399,0.941176470588235
AD,PSEN2,79.17,398,0.938823529411765
AD,MAPT,78.04,397,0.936470588235294
AD,APOE,70,396,0.934117647058823
AD,AD5,66.28,395,0.931764705882353
AD,AD6,65.92,394,0.929411764705882
AD,AD7,65.81,393,0.927058823529412
AD,SNCA,64.14,392,0.924705882352941
AD,SORL1,62.16,391,0.922352941176471
AD,MIR22,59.89,390,0.92
AD,GSK3B,59.8,389,0.917647058823529
AD,MIR26B,59.49,388,0.915294117647059
AD,TNF,58.16,387,0.912941176470588
AD,AD10,57.82,386,0.910588235294118
AD,AD11,57.82,386,0.910588235294118
AD,AD12,57.82,386,0.910588235294118
AD,AD13,57.82,386,0.910588235294118
AD,AD14,57.82,386,0.910588235294118
AD,AD15,57.82,386,0.910588235294118
AD,AD16,57.82,386,0.910588235294118
AD,AD17,57.82,386,0.910588235294118
AD,AD8,57.82,386,0.910588235294118
AD,MIRLET7I,57.81,385,0.908235294117647
AD,MIR197,57.04,384,0.905882352941176
AD,MIR128-1,55.93,383,0.903529411764706
AD,MIR181C,55.62,382,0.901176470588235
AD,MIR15A,55.24,381,0.898823529411765
AD,MIR210,55.01,380,0.896470588235294
AD,MIR93,54.89,379,0.894117647058824
AD,MIR320A,54.32,378,0.891764705882353
AD,MIR363,53.71,377,0.889411764705882
AD,MIR511,53.58,376,0.887058823529412
AD,ADAM10,52.56,375,0.884705882352941
AD,LRP1,51.97,374,0.882352941176471
AD,APBB1,51.76,373,0.88
AD,BACE2,51.03,372,0.877647058823529
AD,HSD17B10,49.43,371,0.875294117647059
AD,SERPINA3,49.41,370,0.872941176470588
AD,CDK5R1,49.06,369,0.870588235294118
AD,NCSTN,44.14,368,0.868235294117647
AD,IDE,43.89,367,0.865882352941176
AD,PSENEN,43.13,366,0.863529411764706
AD,PLD3,40.91,365,0.861176470588235
AD,CLU,40.46,364,0.858823529411765
AD,CASP3,40.36,363,0.856470588235294
AD,DHCR24,40.21,362,0.854117647058824
AD,CTSD,39.82,361,0.851764705882353
AD,DPYSL2,39.09,360,0.849411764705882
AD,SNCB,39.07,359,0.847058823529412
AD,DBN1,38.8,358,0.844705882352941
AD,MT-ND1,38.67,357,0.842352941176471
AD,AGER,38.42,356,0.84
AD,MT3,38.39,355,0.837647058823529
AD,UBB,38.11,354,0.835294117647059
AD,PTGS2,37.73,353,0.832941176470588
AD,GAPDH,36.64,352,0.830588235294118
AD,GSK3A,35.99,351,0.828235294117647
AD,IL1A,35.89,350,0.825882352941177
AD,UCHL1,35.89,350,0.825882352941177
AD,BPTF,35.77,349,0.823529411764706
AD,CHAT,35.13,348,0.821176470588235
AD,BCHE,34.99,347,0.818823529411765
AD,CDK5,34.63,346,0.816470588235294
AD,ABCA7,33.73,345,0.814117647058824
AD,OLR1,33.41,344,0.811764705882353
AD,DOCK3,32.96,343,0.809411764705882
AD,APH1A,32.8,342,0.807058823529412
AD,APLP2,32.68,341,0.804705882352941
AD,MME,32.25,340,0.802352941176471
AD,CALHM1,32.02,339,0.8
AD,PRNP,31.58,338,0.797647058823529
AD,DNM1L,31.58,338,0.797647058823529
AD,EIF2AK2,31.11,337,0.795294117647059
AD,IL1B,30.81,336,0.792941176470588
AD,ITM2B,30.81,336,0.792941176470588
AD,GRIN2C,30.66,335,0.790588235294118
AD,APBA1,30.52,334,0.788235294117647
AD,GSAP,30.33,333,0.785882352941176
AD,GRN,30.22,332,0.783529411764706
AD,APBA2,30.2,331,0.781176470588235
AD,CTSB,30.19,330,0.778823529411765
AD,CLSTN1,30.13,329,0.776470588235294
AD,MT-ND2,30.04,328,0.774117647058824
AD,NAE1,29.9,327,0.771764705882353
AD,CHRNA7,29.78,326,0.769411764705882
AD,COL25A1,29.52,325,0.767058823529412
AD,GPC1,29.46,324,0.764705882352941
AD,REST,29.41,323,0.762352941176471
AD,SPHK2,29.15,322,0.76
AD,PIN1,28.86,321,0.757647058823529
AD,VLDLR,28.65,320,0.755294117647059
AD,DKK1,28.58,319,0.752941176470588
AD,APBB2,28.46,318,0.750588235294118
AD,DYRK1A,28.4,317,0.748235294117647
AD,ACHE,28.29,316,0.745882352941176
AD,LRRK2,27.92,315,0.743529411764706
AD,GRIN2B,27.91,314,0.741176470588235
AD,TM2D1,27.58,313,0.738823529411765
AD,ADAM17,27.52,312,0.736470588235294
AD,VSNL1,27.44,311,0.734117647058824
AD,MAPK8,27.41,310,0.731764705882353
AD,RCAN1,27.31,309,0.729411764705882
AD,MAPK1,27.27,308,0.727058823529412
AD,CHRM1,26.95,307,0.724705882352941
AD,VCP,26.57,306,0.722352941176471
AD,TFCP2,26.4,305,0.72
AD,NOS1,26.17,304,0.717647058823529
AD,PTGS1,26.11,303,0.715294117647059
AD,NOS2,26.04,302,0.712941176470588
AD,COX5A,25.95,301,0.710588235294118
AD,KCNIP3,25.76,300,0.708235294117647
AD,GDNF,25.61,299,0.705882352941177
AD,CAPN1,25.45,298,0.703529411764706
AD,CAT,25.41,297,0.701176470588235
AD,OGT,25.17,296,0.698823529411765
AD,CAPN2,25.12,295,0.696470588235294
AD,BDNF,25.09,294,0.694117647058824
AD,CRH,24.88,293,0.691764705882353
AD,GRIN1,24.75,292,0.689411764705882
AD,MAPK3,24.7,291,0.687058823529412
AD,SQSTM1,24.57,290,0.684705882352941
AD,NGF,24.5,289,0.682352941176471
AD,MAPK10,24.43,288,0.68
AD,TNFRSF1A,24.37,287,0.677647058823529
AD,AKT1,24.34,286,0.675294117647059
AD,PICALM,24.23,285,0.672941176470588
AD,CASP9,24.19,284,0.670588235294118
AD,CD40,24,283,0.668235294117647
AD,CSNK1D,23.96,282,0.665882352941176
AD,MTOR,23.8,281,0.663529411764706
AD,INSR,23.8,281,0.663529411764706
AD,NQO1,23.74,280,0.661176470588235
AD,CR1,23.72,279,0.658823529411765
AD,IL6,23.67,278,0.656470588235294
AD,MSR1,23.61,277,0.654117647058824
AD,APLP1,23.52,276,0.651764705882353
AD,EIF2S1,23.48,275,0.649411764705882
AD,CIB1,23.47,274,0.647058823529412
AD,ACE,23.45,273,0.644705882352941
AD,CYP46A1,23.37,272,0.642352941176471
AD,VDAC1,23.31,271,0.64
AD,S100B,23.26,270,0.637647058823529
AD,GRIN2A,23.15,269,0.635294117647059
AD,CASP2,23.08,268,0.632941176470588
AD,GLRX,23.06,267,0.630588235294118
AD,INS,23.05,266,0.628235294117647
AD,CYCS,22.97,265,0.625882352941176
AD,PCSK1N,22.97,265,0.625882352941176
AD,MEOX2,22.95,264,0.623529411764706
AD,GFAP,22.92,263,0.621176470588235
AD,GRK2,22.76,262,0.618823529411765
AD,REG1A,22.73,261,0.616470588235294
AD,SYP,22.71,260,0.614117647058824
AD,RTN4,22.56,259,0.611764705882353
AD,UBQLN1,22.54,258,0.609411764705882
AD,TARDBP,22.48,257,0.607058823529412
AD,MAP3K5,22.28,256,0.604705882352941
AD,NRGN,22.26,255,0.602352941176471
AD,CASP8,22.2,254,0.6
AD,MAP2,22.16,253,0.597647058823529
AD,BAD,22.09,252,0.595294117647059
AD,ITPR1,22.02,251,0.592941176470588
AD,MAP2K1,22.01,250,0.590588235294118
AD,HRAS,21.95,249,0.588235294117647
AD,EIF2AK3,21.93,248,0.585882352941177
AD,MAOB,21.81,247,0.583529411764706
AD,GPR3,21.81,247,0.583529411764706
AD,ITPR3,21.75,246,0.581176470588235
AD,ERN1,21.62,245,0.578823529411765
AD,BECN1,21.55,244,0.576470588235294
AD,NGFR,21.51,243,0.574117647058824
AD,CTNNB1,21.46,242,0.571764705882353
AD,TUBA1B,21.45,241,0.569411764705882
AD,HRH2,21.42,240,0.567058823529412
AD,LPL,21.4,239,0.564705882352941
AD,VPS26A,21.4,239,0.564705882352941
AD,EXOC3L2,21.37,238,0.562352941176471
AD,TTBK1,21.36,237,0.56
AD,HMGB1,21.33,236,0.557647058823529
AD,TMED10,21.28,235,0.555294117647059
AD,APBA3,21.27,234,0.552941176470588
AD,MARK4,21.27,234,0.552941176470588
AD,SEMA3A,21.27,234,0.552941176470588
AD,CAV3,21.27,234,0.552941176470588
AD,CACNA1C,21.27,234,0.552941176470588
AD,APAF1,21.26,233,0.550588235294118
AD,CASP7,21.25,232,0.548235294117647
AD,FAS,21.24,231,0.545882352941176
AD,CSNK2A1,21.22,230,0.543529411764706
AD,NTRK1,21.22,230,0.543529411764706
AD,SOD1,21.21,229,0.541176470588235
AD,TUBB,21.19,228,0.538823529411765
AD,PIK3R1,21.18,227,0.536470588235294
AD,IRS1,21.14,226,0.534117647058823
AD,RAF1,21.07,225,0.531764705882353
AD,CSF1R,21,224,0.529411764705882
AD,GNAQ,20.98,223,0.527058823529412
AD,GRM5,20.96,222,0.524705882352941
AD,RYR3,20.92,221,0.522352941176471
AD,SORCS3,20.86,220,0.52
AD,APBB3,20.86,220,0.52
AD,MARK1,20.86,220,0.52
AD,PADI2,20.82,219,0.517647058823529
AD,CST3,20.73,218,0.515294117647059
AD,TTR,20.71,217,0.512941176470588
AD,PPP3CA,20.65,216,0.510588235294118
AD,CSNK1A1L,20.63,215,0.508235294117647
AD,CALM1,20.61,214,0.505882352941176
AD,STMN2,20.61,214,0.505882352941176
AD,PPP3R1,20.59,213,0.503529411764706
AD,PLCB1,20.55,212,0.501176470588235
AD,APH1B,20.52,211,0.498823529411765
AD,SLC30A6,20.51,210,0.496470588235294
AD,RPS27A,20.43,209,0.494117647058824
AD,NTRK2,20.4,208,0.491764705882353
AD,XBP1,20.37,207,0.489411764705882
AD,KIDINS220,20.33,206,0.487058823529412
AD,DNMBP,20.29,205,0.484705882352941
AD,FRMD4A,20.27,204,0.482352941176471
AD,TNFRSF21,20.27,204,0.482352941176471
AD,CALM3,20.24,203,0.48
AD,PPIF,20.23,202,0.477647058823529
AD,STH,20.22,201,0.475294117647059
AD,PITRM1,20.22,201,0.475294117647059
AD,PCDH11X,20.18,200,0.472941176470588
AD,CSF1,20.14,199,0.470588235294118
AD,SLC1A2,20.13,198,0.468235294117647
AD,SAA1,20.09,197,0.465882352941176
AD,HMOX1,20.02,196,0.463529411764706
AD,SNCG,20.02,196,0.463529411764706
AD,DLST,20,195,0.461176470588235
AD,DDIT3,19.99,194,0.458823529411765
AD,IRS2,19.98,193,0.456470588235294
AD,SLC39A1,19.98,193,0.456470588235294
AD,RTN3,19.97,192,0.454117647058824
AD,KLC1,19.96,191,0.451764705882353
AD,PTPA,19.96,191,0.451764705882353
AD,GAL,19.93,190,0.449411764705882
AD,TF,19.92,189,0.447058823529412
AD,PIK3C3,19.91,188,0.444705882352941
AD,COX4I1,19.91,188,0.444705882352941
AD,ANKS1B,19.9,187,0.442352941176471
AD,PLA2G3,19.9,187,0.442352941176471
AD,ABCA1,19.89,186,0.44
AD,BLMH,19.87,185,0.437647058823529
AD,RELN,19.85,184,0.435294117647059
AD,CTNNA3,19.82,183,0.432941176470588
AD,PCMT1,19.81,182,0.430588235294118
AD,LRP6,19.79,181,0.428235294117647
AD,LRP8,19.77,180,0.425882352941176
AD,TNK1,19.76,179,0.423529411764706
AD,MAP2K7,19.7,178,0.421176470588235
AD,AATF,19.7,178,0.421176470588235
AD,MAPK9,19.68,177,0.418823529411765
AD,MAZ,19.68,177,0.418823529411765
AD,ADAM19,19.68,177,0.418823529411765
AD,ATF4,19.63,176,0.416470588235294
AD,APOC1,19.62,175,0.414117647058824
AD,VDAC2,19.6,174,0.411764705882353
AD,KLK8,19.59,173,0.409411764705882
AD,RELA,19.57,172,0.407058823529412
AD,GAP43,19.55,171,0.404705882352941
AD,CALM2,19.54,170,0.402352941176471
AD,CALML5,19.47,169,0.4
AD,MT-CO1,19.44,168,0.397647058823529
AD,MAP1B,19.42,167,0.395294117647059
AD,NOX1,19.37,166,0.392941176470588
AD,THBS4,19.37,166,0.392941176470588
AD,PPARG,19.3,165,0.390588235294118
AD,TSHZ3,19.29,164,0.388235294117647
AD,NFKB1,19.28,163,0.385882352941176
AD,LRP5,19.26,162,0.383529411764706
AD,SPTLC1,19.23,161,0.381176470588235
AD,MT-RNR2,19.23,161,0.381176470588235
AD,DCHS2,19.21,160,0.378823529411765
AD,PZP,19.17,159,0.376470588235294
AD,PPID,19.16,158,0.374117647058824
AD,NDRG2,19.15,157,0.371764705882353
AD,CDK5RAP2,19.15,157,0.371764705882353
AD,MT-ND4,19.15,157,0.371764705882353
AD,DERL1,19.13,156,0.369411764705882
AD,ADAMTS4,19.12,155,0.367058823529412
AD,MT-CO2,19.11,154,0.364705882352941
AD,SPTLC2,19.11,154,0.364705882352941
AD,DLG4,19.09,153,0.362352941176471
AD,MIR132,19.08,152,0.36
AD,SLC18A3,19.07,151,0.357647058823529
AD,CHUK,19.05,150,0.355294117647059
AD,SEPTIN1,19.04,149,0.352941176470588
AD,AZIN2,19.03,148,0.350588235294118
AD,DKK3,18.96,147,0.348235294117647
AD,MALRD1,18.94,146,0.345882352941176
AD,LDLR,18.93,145,0.343529411764706
AD,PRKN,18.91,144,0.341176470588235
AD,CREB1,18.91,144,0.341176470588235
AD,NTF3,18.89,143,0.338823529411765
AD,CAST,18.88,142,0.336470588235294
AD,PSMC6,18.87,141,0.334117647058824
AD,COLEC12,18.87,141,0.334117647058824
AD,PIK3R4,18.86,140,0.331764705882353
AD,GRIA1,18.85,139,0.329411764705882
AD,UQCRC1,18.78,138,0.327058823529412
AD,ATP5PD,18.76,137,0.324705882352941
AD,DVL1,18.69,136,0.322352941176471
AD,KRAS,18.66,135,0.32
AD,ATP5F1A,18.65,134,0.317647058823529
AD,DKK2,18.65,134,0.317647058823529
AD,TRAF2,18.64,133,0.315294117647059
AD,NEFL,18.63,132,0.312941176470588
AD,ASAH2B,18.63,132,0.312941176470588
AD,PLCB4,18.62,131,0.310588235294118
AD,KIF5B,18.59,130,0.308235294117647
AD,APOD,18.59,130,0.308235294117647
AD,TM2D3,18.56,129,0.305882352941176
AD,CSNK1A1,18.53,128,0.303529411764706
AD,CALML3,18.53,128,0.303529411764706
AD,DKK4,18.5,127,0.301176470588235
AD,TUBB2A,18.48,126,0.298823529411765
AD,NDUFS3,18.48,126,0.298823529411765
AD,RNF146,18.43,125,0.296470588235294
AD,ATP5PF,18.42,124,0.294117647058824
AD,CSNK2A2,18.41,123,0.291764705882353
AD,HSPA5,18.4,122,0.289411764705882
AD,CH25H,18.38,121,0.287058823529412
AD,GLUL,18.35,120,0.284705882352941
AD,PVALB,18.29,119,0.282352941176471
AD,FPR2,18.27,118,0.28
AD,PSCA,18.24,117,0.277647058823529
AD,WNT8B,18.23,116,0.275294117647059
AD,CASP6,18.22,115,0.272941176470588
AD,SNAP25,18.18,114,0.270588235294118
AD,TUBA1C,18.18,114,0.270588235294118
AD,SLC25A4,18.18,114,0.270588235294118
AD,PIK3CA,18.13,113,0.268235294117647
AD,NDUFS4,18.11,112,0.265882352941176
AD,PLCD1,18.08,111,0.263529411764706
AD,TSPO,18.03,110,0.261176470588235
AD,ATP5F1C,18.02,109,0.258823529411765
AD,NOTCH1,18.01,108,0.256470588235294
AD,SLC25A6,18.01,108,0.256470588235294
AD,CSNK1E,17.98,107,0.254117647058824
AD,NEFH,17.96,106,0.251764705882353
AD,APC,17.95,105,0.249411764705882
AD,PSMA5,17.86,104,0.247058823529412
AD,SLC6A3,17.84,103,0.244705882352941
AD,COX6B1,17.84,103,0.244705882352941
AD,SLC1A3,17.83,102,0.242352941176471
AD,ATP5PB,17.8,101,0.24
AD,PSMA1,17.75,100,0.237647058823529
AD,TMEFF2,17.75,100,0.237647058823529
AD,IRS4,17.74,99,0.235294117647059
AD,TH,17.71,98,0.232941176470588
AD,MAPK14,17.71,98,0.232941176470588
AD,MAP2K2,17.68,97,0.230588235294118
AD,CALB1,17.68,97,0.230588235294118
AD,OGDH,17.62,96,0.228235294117647
AD,SREK1IP1,17.61,95,0.225882352941176
AD,COX6C,17.59,94,0.223529411764706
AD,HMGCR,17.53,93,0.221176470588235
AD,FYN,17.53,93,0.221176470588235
AD,NRBF2,17.52,92,0.218823529411765
AD,PSMB1,17.51,91,0.216470588235294
AD,HTR2A,17.51,91,0.216470588235294
AD,TUBB2B,17.5,90,0.214117647058824
AD,PREP,17.48,89,0.211764705882353
AD,CSNK2B,17.47,88,0.209411764705882
AD,JUN,17.42,87,0.207058823529412
AD,ATP5PO,17.42,87,0.207058823529412
AD,MIR124-1,17.39,86,0.204705882352941
AD,SERPINE2,17.39,86,0.204705882352941
AD,CASP1,17.38,85,0.202352941176471
AD,PSMC1,17.31,84,0.2
AD,PEBP1,17.29,83,0.197647058823529
AD,SOD2,17.21,82,0.195294117647059
AD,HTR6,17.19,81,0.192941176470588
AD,CP,17.18,80,0.190588235294118
AD,TUBA3D,17.16,79,0.188235294117647
AD,KLK6,17.13,78,0.185882352941176
AD,MAOA,17.1,77,0.183529411764706
AD,FRAT1,17.09,76,0.181176470588235
AD,PSMC2,17.06,75,0.178823529411765
AD,TUBB6,17.01,74,0.176470588235294
AD,MAPK8IP1,16.97,73,0.174117647058824
AD,CHRNB2,16.97,73,0.174117647058824
AD,NEFM,16.89,72,0.171764705882353
AD,SNAP91,16.86,71,0.169411764705882
AD,CDKN3,16.84,70,0.167058823529412
AD,GSTO1,16.75,69,0.164705882352941
AD,SLC6A4,16.74,68,0.162352941176471
AD,ESR2,16.61,67,0.16
AD,CRYAB,16.6,66,0.157647058823529
AD,PON1,16.6,66,0.157647058823529
AD,NTF4,16.46,65,0.155294117647059
AD,NPY,16.46,65,0.155294117647059
AD,PINK1,16.31,64,0.152941176470588
AD,ECE1,16.31,64,0.152941176470588
AD,LRP2,16.28,63,0.150588235294118
AD,LRPAP1,16.24,62,0.148235294117647
AD,HSPA8,16.22,61,0.145882352941176
AD,CHRNA4,16.2,60,0.143529411764706
AD,COMT,16.2,60,0.143529411764706
AD,GSN,16.19,59,0.141176470588235
AD,CFH,16.19,59,0.141176470588235
AD,HTR1A,16.17,58,0.138823529411765
AD,TUBB3,16.15,57,0.136470588235294
AD,NPC1,16.13,56,0.134117647058824
AD,TREM2,16.11,55,0.131764705882353
AD,QPCT,16.06,54,0.129411764705882
AD,MTNR1A,16.02,53,0.127058823529412
AD,MIR125A,15.93,52,0.124705882352941
AD,PLA2G6,15.83,51,0.122352941176471
AD,DRD2,15.82,50,0.12
AD,AD9,15.81,49,0.117647058823529
AD,GRIA2,15.76,48,0.115294117647059
AD,TLR2,15.75,47,0.112941176470588
AD,NTRK3,15.62,46,0.110588235294118
AD,GSR,15.6,45,0.108235294117647
AD,ERBB4,15.53,44,0.105882352941176
AD,CNR1,15.43,43,0.103529411764706
AD,RAB3A,15.41,42,0.101176470588235
AD,DRD1,15.4,41,0.0988235294117647
AD,CAMK2G,15.39,40,0.0964705882352941
AD,PRKCA,15.37,39,0.0941176470588235
AD,DRD3,15.32,38,0.0917647058823529
AD,PPARA,15.21,37,0.0894117647058824
AD,CYP2D6,15.13,36,0.0870588235294118
AD,CCL3,15.12,35,0.0847058823529412
AD,RAB5A,15.11,34,0.0823529411764706
AD,DRD4,15.1,33,0.08
AD,ABCA2,15.1,33,0.08
AD,TP53,15.1,33,0.08
AD,FGFR1,15.07,32,0.0776470588235294
AD,APOB,15.07,32,0.0776470588235294
AD,JCAD,15.06,31,0.0752941176470588
AD,LOC111258525,15.06,31,0.0752941176470588
AD,NRG1,15.04,30,0.0729411764705882
AD,AGRN,15.02,29,0.0705882352941176
AD,AQP4,14.99,28,0.0682352941176471
AD,BIN1,14.98,27,0.0658823529411765
AD,GLP1R,14.97,26,0.0635294117647059
AD,ALOX5,14.97,26,0.0635294117647059
AD,MROH8,14.96,25,0.0611764705882353
AD,GCG,14.96,25,0.0611764705882353
AD,NPEPPS,14.96,25,0.0611764705882353
AD,TOMM40,14.94,24,0.0588235294117647
AD,TXN,14.91,23,0.0564705882352941
AD,PRKCB,14.88,22,0.0541176470588235
AD,SOAT1,14.86,21,0.0517647058823529
AD,HCRT,14.86,21,0.0517647058823529
AD,DBH,14.81,20,0.0494117647058823
AD,C1R,14.78,19,0.0470588235294118
AD,PRKCZ,14.78,19,0.0470588235294118
AD,MYOCD,14.76,18,0.0447058823529412
AD,CNR2,14.76,18,0.0447058823529412
AD,RALGPS2,14.71,17,0.0423529411764706
AD,EGR1,14.69,16,0.04
AD,CAV1,14.67,15,0.0376470588235294
AD,CDK1,14.66,14,0.0352941176470588
AD,HSPG2,14.65,13,0.0329411764705882
AD,RPS6KB1,14.63,12,0.0305882352941176
AD,AOC3,14.61,11,0.0282352941176471
AD,PRND,14.59,10,0.0258823529411765
AD,SIRT1,14.55,9,0.0235294117647059
AD,IL10,14.52,8,0.0211764705882353
AD,ALB,14.49,7,0.0188235294117647
AD,OGG1,14.48,6,0.0164705882352941
AD,BLVRB,14.46,5,0.0141176470588235
AD,PLA2G4A,14.42,4,0.0117647058823529
AD,CALB2,14.41,3,0.00941176470588235
AD,CETP,14.36,2,0.00705882352941176
AD,MTR,14.32,1,0.00470588235294118
scz,RTN4R,1007.43,399,1
scz,COMT,728.45,398,0.9975
scz,HTR2A,718.66,397,0.995
scz,DRD3,702.18,396,0.9925
scz,MTHFR,685.18,395,0.99
scz,SYN2,680.38,394,0.9875
scz,CHI3L1,669.9,393,0.985
scz,NRXN1,445.14,392,0.9825
scz,SETD1A,420.65,391,0.98
scz,EHMT1,418.95,390,0.9775
scz,MC4R,412.05,389,0.975
scz,MIR30E,410.95,388,0.9725
scz,MBD5,405.42,387,0.97
scz,MIR206,360.54,386,0.9675
scz,MIR198,354.7,385,0.965
scz,DISC2,331.59,384,0.9625
scz,DISC1,214.3,383,0.96
scz,DAOA,201.54,382,0.9575
scz,MIAT,170.5,381,0.955
scz,LINC00271,160.7,380,0.9525
scz,APOL4,160.69,379,0.95
scz,APOL2,160.59,378,0.9475
scz,DAOA-AS1,156.34,377,0.945
scz,DLG2-AS1,156.27,376,0.9425
scz,BDNF-AS,155.32,375,0.94
scz,HAR1A,155.09,374,0.9375
scz,HAR1B,154.34,373,0.935
scz,TRAF3IP2-AS1,153.94,372,0.9325
scz,ENSG00000230894,150,371,0.93
scz,LRRC2-AS1,150,371,0.93
scz,SCZD6,115.34,370,0.9275
scz,SCZD1,115.31,369,0.925
scz,SCZD2,115.31,369,0.925
scz,SCZD7,115.23,368,0.9225
scz,SCZD8,115.18,367,0.92
scz,SCZD12,115.11,366,0.9175
scz,SCZD3,115.11,366,0.9175
scz,SCZD11,114.74,365,0.915
scz,SCZD10,64.88,364,0.9125
scz,SCZD13,64.74,363,0.91
scz,MIR195,64.18,362,0.9075
scz,MIR9-1,60.86,361,0.905
scz,PRODH,58.4,360,0.9025
scz,SCZD14,57.26,359,0.9
scz,MIR212,55.68,358,0.8975
scz,MIR346,55.41,357,0.895
scz,MIR106B,54.96,356,0.8925
scz,MIR107,54.9,355,0.89
scz,MIR30B,54.83,354,0.8875
scz,MIR29A,54.78,353,0.885
scz,MIR30A,54.7,352,0.8825
scz,MIR26B,54.56,351,0.88
scz,MIR29C,54.43,350,0.8775
scz,MIR15A,54.34,349,0.875
scz,MIR15B,54.32,348,0.8725
scz,MIR20B,54.16,347,0.87
scz,MIR30D,53.97,346,0.8675
scz,DRD2,45.1,345,0.865
scz,DTNBP1,44.5,344,0.8625
scz,NPAS3,44.38,343,0.86
scz,DAO,41.8,342,0.8575
scz,RELN,41.67,341,0.855
scz,RGS4,41.49,340,0.8525
scz,GABRB2,38.8,339,0.85
scz,NRG1,35.18,338,0.8475
scz,TSNAX-DISC1,34.56,337,0.845
scz,CLINT1,34.43,336,0.8425
scz,DRD4,33.53,335,0.84
scz,CHRNA7,32.89,334,0.8375
scz,SHANK3,32.74,333,0.835
scz,SLC1A1,32.14,332,0.8325
scz,GRIN2B,30.95,331,0.83
scz,ZDHHC8,30.72,330,0.8275
scz,PDE4B,30.29,329,0.825
scz,ULK4,29.5,328,0.8225
scz,NOTCH4,29.13,327,0.82
scz,GABRB1,29.11,326,0.8175
scz,KCNN3,28.99,325,0.815
scz,QKI,28.92,324,0.8125
scz,TPH1,28.78,323,0.81
scz,GRIK3,28.51,322,0.8075
scz,NRG3,28.32,321,0.805
scz,FZD3,27.58,320,0.8025
scz,DBH,27.15,319,0.8
scz,GPR153,26.51,318,0.7975
scz,SLC18A2,26.25,317,0.795
scz,YWHAH,25.66,316,0.7925
scz,NTF3,25.55,315,0.79
scz,CPLX2,25.3,314,0.7875
scz,BDNF,25.14,313,0.785
scz,GRM1,24.41,312,0.7825
scz,ZNF804A,24.13,311,0.78
scz,GRM3,24.12,310,0.7775
scz,DRD1,24.09,309,0.775
scz,GRIA4,23.84,308,0.7725
scz,PRL,23.83,307,0.77
scz,HTR2C,23.82,306,0.7675
scz,GAD1,23.58,305,0.765
scz,GNAL,23.58,305,0.765
scz,HTR1A,23.56,304,0.7625
scz,SLC6A3,23.42,303,0.76
scz,MECP2,23.38,302,0.7575
scz,GABBR1,23.31,301,0.755
scz,SLC6A4,22.94,300,0.7525
scz,PVALB,22.61,299,0.75
scz,HTR3A,22.41,298,0.7475
scz,GRIN1,22.38,297,0.745
scz,DRD5,22.22,296,0.7425
scz,GRM2,22.16,295,0.74
scz,GRIN2C,22.07,294,0.7375
scz,CNTNAP2,22.01,293,0.735
scz,FOLH1,21.94,292,0.7325
scz,ERVW-1,21.85,291,0.73
scz,SYN3,21.75,290,0.7275
scz,HRH2,21.65,289,0.725
scz,GRIN2A,21.59,288,0.7225
scz,PDLIM5,21.56,287,0.72
scz,PPP3CC,21.44,286,0.7175
scz,CYFIP1,21.43,285,0.715
scz,VRK2,21.3,284,0.7125
scz,TH,21.18,283,0.71
scz,PPP1R1B,21.18,283,0.71
scz,NTNG1,21.11,282,0.7075
scz,GRM5,21.09,281,0.705
scz,GRIN3B,21,280,0.7025
scz,ITIH3,20.94,279,0.7
scz,DLG4,20.93,278,0.6975
scz,SRR,20.9,277,0.695
scz,LRRTM1,20.89,276,0.6925
scz,TAAR6,20.89,276,0.6925
scz,KCTD13,20.74,275,0.69
scz,ASTN2,20.73,274,0.6875
scz,PIP4K2A,20.72,273,0.685
scz,SEMA3A,20.67,272,0.6825
scz,ERBB4,20.6,271,0.68
scz,NDUFV2,20.48,270,0.6775
scz,NTS,20.38,269,0.675
scz,MDGA1,20.38,269,0.675
scz,CNR1,20.37,268,0.6725
scz,SHANK2,20.32,267,0.67
scz,MAP6,20.22,266,0.6675
scz,RBM12,20.19,265,0.665
scz,FAN1,20.17,264,0.6625
scz,SLC6A9,20.11,263,0.66
scz,BRD1,20.11,263,0.66
scz,ATP2A2,20.08,262,0.6575
scz,KYAT1,20.01,261,0.655
scz,C4A,19.99,260,0.6525
scz,CSMD2,19.9,259,0.65
scz,SMARCA2,19.83,258,0.6475
scz,HTR6,19.79,257,0.645
scz,SP4,19.76,256,0.6425
scz,RSRC1,19.74,255,0.64
scz,SULT4A1,19.72,254,0.6375
scz,C4B,19.65,253,0.635
scz,NOS1AP,19.59,252,0.6325
scz,CYP2D6,19.56,251,0.63
scz,MEGF10,19.55,250,0.6275
scz,SLC6A1,19.52,249,0.625
scz,GRIK4,19.51,248,0.6225
scz,NOS1,19.44,247,0.62
scz,FEZ1,19.43,246,0.6175
scz,GRIK5,19.34,245,0.615
scz,MYO16,19.28,244,0.6125
scz,SNAP25,19.27,243,0.61
scz,SELENBP1,19.23,242,0.6075
scz,MAOA,19.23,242,0.6075
scz,UHMK1,19.22,241,0.605
scz,GRIA1,19.14,240,0.6025
scz,ABCA13,19.14,240,0.6025
scz,CALB1,19.07,239,0.6
scz,CACNG5,19.07,239,0.6
scz,CHN2,18.91,238,0.5975
scz,DLG3,18.9,237,0.595
scz,SLC17A7,18.82,236,0.5925
scz,MICB,18.59,235,0.59
scz,CDC42SE2,18.58,234,0.5875
scz,GRIK2,18.54,233,0.585
scz,CALB2,18.53,232,0.5825
scz,TSNAX,18.52,231,0.58
scz,NR4A2,18.51,230,0.5775
scz,SERPINA3,18.49,229,0.575
scz,MOBP,18.46,228,0.5725
scz,PSAT1,18.45,227,0.57
scz,PPP1R9B,18.44,226,0.5675
scz,MED12,18.44,226,0.5675
scz,CNIH3,18.43,225,0.565
scz,CNIH2,18.37,224,0.5625
scz,RTN4,18.36,223,0.56
scz,CNP,18.31,222,0.5575
scz,CHRM1,18.28,221,0.555
scz,CNIH1,18.24,220,0.5525
scz,ARVCF,18.17,219,0.55
scz,HTR7,18.12,218,0.5475
scz,PAFAH1B1,18.11,217,0.545
scz,GRIK1,18.09,216,0.5425
scz,GRIA2,18.07,215,0.54
scz,HTR1B,18.05,214,0.5375
scz,HRH3,18.04,213,0.535
scz,GPR78,18.03,212,0.5325
scz,DPYSL2,17.91,211,0.53
scz,NMBR,17.8,210,0.5275
scz,ADGRA3,17.77,209,0.525
scz,APOD,17.72,208,0.5225
scz,RELA,17.61,207,0.52
scz,PICK1,17.52,206,0.5175
scz,TPH2,17.5,205,0.515
scz,HSPG2,17.4,204,0.5125
scz,NRGN,17.38,203,0.51
scz,CCK,17.33,202,0.5075
scz,PLXNA2,17.24,201,0.505
scz,SLC18A1,17.22,200,0.5025
scz,AKT1,17.17,199,0.5
scz,TTBK1,17.02,198,0.4975
scz,IMPA2,16.92,197,0.495
scz,NCS1,16.92,197,0.495
scz,MIR132,16.85,196,0.4925
scz,SLC1A2,16.82,195,0.49
scz,CHL1,16.76,194,0.4875
scz,CHRNB2,16.75,193,0.485
scz,CYP1A2,16.74,192,0.4825
scz,GRIA3,16.62,191,0.48
scz,PTGIS,16.57,190,0.4775
scz,GAD2,16.53,189,0.475
scz,BLOC1S1,16.49,188,0.4725
scz,MAG,16.4,187,0.47
scz,CHRNA4,16.39,186,0.4675
scz,GNB3,16.34,185,0.465
scz,TDO2,16.33,184,0.4625
scz,NPY,16.32,183,0.46
scz,GAP43,16.3,182,0.4575
scz,KCNN1,16.3,182,0.4575
scz,NTRK2,16.27,181,0.455
scz,SLC6A2,16.22,180,0.4525
scz,MAP2,16.2,179,0.45
scz,MAOB,16.19,178,0.4475
scz,CACNG2,16.06,177,0.445
scz,ADORA2A,16,176,0.4425
scz,PLA2G6,15.92,175,0.44
scz,HTR1D,15.84,174,0.4375
scz,HINT1,15.84,174,0.4375
scz,MBP,15.79,173,0.435
scz,GSK3B,15.78,172,0.4325
scz,CCKAR,15.76,171,0.43
scz,TSPO,15.75,170,0.4275
scz,ACHE,15.72,169,0.425
scz,CALY,15.65,168,0.4225
scz,GABRG2,15.56,167,0.42
scz,FOXP2,15.53,166,0.4175
scz,SLC1A3,15.51,165,0.415
scz,APOL1,15.5,164,0.4125
scz,DNMT1,15.47,163,0.41
scz,GRM8,15.39,162,0.4075
scz,FMR1,15.39,162,0.4075
scz,HRH1,15.38,161,0.405
scz,ST8SIA2,15.37,160,0.4025
scz,CREB1,15.33,159,0.4
scz,NR3C1,15.29,158,0.3975
scz,PCNT,15.28,157,0.395
scz,DDC,15.27,156,0.3925
scz,CHAT,15.25,155,0.39
scz,MLC1,15.22,154,0.3875
scz,OPRM1,15.15,153,0.385
scz,GAPDH,15.15,153,0.385
scz,PLA2G4A,15.14,152,0.3825
scz,CHRM5,15.11,151,0.38
scz,CACNA1C,15.11,151,0.38
scz,SOX10,15.08,150,0.3775
scz,GRM4,15.05,149,0.375
scz,DLGAP1,15.01,148,0.3725
scz,SLC17A6,15.01,148,0.3725
scz,SNCA,15.01,148,0.3725
scz,PDYN,14.94,147,0.37
scz,GDNF,14.9,146,0.3675
scz,DLG1,14.87,145,0.365
scz,CYP3A4,14.82,144,0.3625
scz,ADRA2A,14.76,143,0.36
scz,HCRT,14.64,142,0.3575
scz,TACR3,14.58,141,0.355
scz,ADCYAP1,14.43,140,0.3525
scz,FYN,14.41,139,0.35
scz,ERBB3,14.41,139,0.35
scz,PLP1,14.4,138,0.3475
scz,FAAH,14.37,137,0.345
scz,MIR137,14.36,136,0.3425
scz,NSF,14.32,135,0.34
scz,GLUL,14.31,134,0.3375
scz,CHGB,14.3,133,0.335
scz,TNF,14.25,132,0.3325
scz,IL6,14.23,131,0.33
scz,NTSR1,14.23,131,0.33
scz,CIT,14.22,130,0.3275
scz,DGCR6,14.22,130,0.3275
scz,HTR4,14.17,129,0.325
scz,INS,14.16,128,0.3225
scz,NDEL1,14.14,127,0.32
scz,SLC1A4,14.11,126,0.3175
scz,ANK3,14.08,125,0.315
scz,PAX6,14.06,124,0.3125
scz,OXT,14.06,124,0.3125
scz,APOE,14.05,123,0.31
scz,MAP1B,14.05,123,0.31
scz,CLOCK,14.04,122,0.3075
scz,HLA-DQB1,14.03,121,0.305
scz,NBPF3,14.02,120,0.3025
scz,IL1B,14.02,120,0.3025
scz,HLA-DRB1,13.98,119,0.3
scz,NTRK1,13.95,118,0.2975
scz,MOG,13.91,117,0.295
scz,HMBS,13.91,117,0.295
scz,NTRK3,13.9,116,0.2925
scz,VLDLR,13.89,115,0.29
scz,CHRM2,13.81,114,0.2875
scz,NEFL,13.8,113,0.285
scz,GRM7,13.79,112,0.2825
scz,CSMD1,13.72,111,0.28
scz,GRIP1,13.65,110,0.2775
scz,CNTF,13.63,109,0.275
scz,PPARA,13.62,108,0.2725
scz,IDO1,13.61,107,0.27
scz,S100B,13.61,107,0.27
scz,FOS,13.61,107,0.27
scz,NDUFS4,13.59,106,0.2675
scz,GRK3,13.59,106,0.2675
scz,TCF4,13.58,105,0.265
scz,OXTR,13.54,104,0.2625
scz,CYP2C19,13.52,103,0.26
scz,CACNA1A,13.48,102,0.2575
scz,GRIN2D,13.46,101,0.255
scz,NGF,13.44,100,0.2525
scz,PDE10A,13.43,99,0.25
scz,ESR2,13.43,99,0.25
scz,PPP1R13B,13.42,98,0.2475
scz,C4B_2,13.4,97,0.245
scz,LEP,13.4,97,0.245
scz,SPTAN1,13.39,96,0.2425
scz,ANKK1,13.36,95,0.24
scz,HSPA1A,13.35,94,0.2375
scz,SYP,13.35,94,0.2375
scz,GLS,13.33,93,0.235
scz,NLGN4X,13.33,93,0.235
scz,TNFRSF1A,13.32,92,0.2325
scz,TNFRSF1B,13.32,92,0.2325
scz,TBP,13.31,91,0.23
scz,PLA2G1B,13.3,90,0.2275
scz,GFAP,13.29,89,0.225
scz,SST,13.27,88,0.2225
scz,NRXN3,13.27,88,0.2225
scz,NR4A1,13.26,87,0.22
scz,NDE1,13.25,86,0.2175
scz,NLGN1,13.25,86,0.2175
scz,CCKBR,13.25,86,0.2175
scz,GSK3A,13.23,85,0.215
scz,ATXN1,13.22,84,0.2125
scz,HSPA8,13.22,84,0.2125
scz,DLG2,13.22,84,0.2125
scz,XBP1,13.2,83,0.21
scz,CRP,13.2,83,0.21
scz,KMO,13.17,82,0.2075
scz,LTA,13.13,81,0.205
scz,SP1,13.12,80,0.2025
scz,DBN1,13.11,79,0.2
scz,GRIN3A,13.1,78,0.1975
scz,IL10,13.08,77,0.195
scz,AQP4,12.99,76,0.1925
scz,NRXN2,12.99,76,0.1925
scz,CRH,12.98,75,0.19
scz,DNAJC14,12.94,74,0.1875
scz,GABRB3,12.92,73,0.185
scz,POMC,12.91,72,0.1825
scz,IL2,12.89,71,0.18
scz,SLC32A1,12.89,71,0.18
scz,APP,12.86,70,0.1775
scz,NQO2,12.85,69,0.175
scz,MAPT,12.84,68,0.1725
scz,HOMER1,12.82,67,0.17
scz,BACE1,12.79,66,0.1675
scz,AGER,12.79,66,0.1675
scz,SCT,12.78,65,0.165
scz,IL6R,12.77,64,0.1625
scz,PAH,12.76,63,0.16
scz,GPX1,12.76,63,0.16
scz,KALRN,12.74,62,0.1575
scz,ADM,12.74,62,0.1575
scz,EGF,12.74,62,0.1575
scz,GLUD1,12.7,61,0.155
scz,GABRA1,12.69,60,0.1525
scz,ACE,12.69,60,0.1525
scz,CACNB2,12.66,59,0.15
scz,ARC,12.62,58,0.1475
scz,CHRNA5,12.62,58,0.1475
scz,NPAS1,12.61,57,0.145
scz,ADCY10,12.6,56,0.1425
scz,CNNM2,12.59,55,0.14
scz,CTNNB1,12.59,55,0.14
scz,MDH1,12.59,55,0.14
scz,GRID1,12.56,54,0.1375
scz,HTR3B,12.56,54,0.1375
scz,NCAN,12.54,53,0.135
scz,VIPR2,12.53,52,0.1325
scz,PLA2G2A,12.53,52,0.1325
scz,OLIG2,12.53,52,0.1325
scz,GPHN,12.53,52,0.1325
scz,HDAC9,12.51,51,0.13
scz,RIC3,12.51,51,0.13
scz,CPLX1,12.5,50,0.1275
scz,GABRA2,12.49,49,0.125
scz,ESR1,12.48,48,0.1225
scz,CNR2,12.47,47,0.12
scz,EGR1,12.46,46,0.1175
scz,EGR3,12.45,45,0.115
scz,IL18R1,12.43,44,0.1125
scz,FKBP5,12.42,43,0.11
scz,NRP1,12.42,43,0.11
scz,MYT1L,12.42,43,0.11
scz,SLC12A2,12.39,42,0.1075
scz,ARRB2,12.38,41,0.105
scz,NTNG2,12.37,40,0.1025
scz,AS3MT,12.37,40,0.1025
scz,ACTB,12.36,39,0.1
scz,ABCB1,12.35,38,0.0975
scz,NCAM1,12.35,38,0.0975
scz,NQO1,12.34,37,0.095
scz,SIGMAR1,12.34,37,0.095
scz,MAD1L1,12.34,37,0.095
scz,TP53,12.34,37,0.095
scz,ADRA1A,12.31,36,0.0925
scz,CNTN4,12.31,36,0.0925
scz,KCNH2,12.3,35,0.09
scz,RXRB,12.29,34,0.0875
scz,IL4,12.28,33,0.085
scz,DGCR2,12.26,32,0.0825
scz,MAPK14,12.25,31,0.08
scz,CHRFAM7A,12.24,30,0.0775
scz,YWHAE,12.24,30,0.0775
scz,DGCR8,12.23,29,0.075
scz,PLCB1,12.22,28,0.0725
scz,VSNL1,12.22,28,0.0725
scz,HTR5A,12.21,27,0.07
scz,CXCL8,12.2,26,0.0675
scz,SOD1,12.2,26,0.0675
scz,ALB,12.17,25,0.065
scz,CRHR1,12.17,25,0.065
scz,GABRA5,12.17,25,0.065
scz,ADNP,12.16,24,0.0625
scz,TNIK,12.15,23,0.06
scz,NT5C2,12.14,22,0.0575
scz,CSN1S1,12.14,22,0.0575
scz,PTGS2,12.14,22,0.0575
scz,GHRL,12.14,22,0.0575
scz,CDK5,12.11,21,0.055
scz,DPP4,12.1,20,0.0525
scz,IFNG,12.1,20,0.0525
scz,TSNARE1,12.06,19,0.05
scz,IL1RAPL2,12.05,18,0.0475
scz,CMYA5,12.04,17,0.045
scz,CDC42,12.04,17,0.045
scz,C9orf72,12.04,17,0.045
scz,CHRM4,12.03,16,0.0425
scz,MIR137HG,12.01,15,0.04
scz,PI4KA,12.01,15,0.04
scz,GSTM1,12.01,15,0.04
scz,CHRNA3,12.01,15,0.04
scz,DLGAP2,12,14,0.0375
scz,FABP7,12,14,0.0375
scz,FXYD6,11.99,13,0.035
scz,ABAT,11.99,13,0.035
scz,AHI1,11.99,13,0.035
scz,PCM1,11.98,12,0.0325
scz,SYNGR1,11.97,11,0.03
scz,NBPF12,11.97,11,0.03
scz,YWHAZ,11.97,11,0.03
scz,STXBP1,11.95,10,0.0275
scz,MMP9,11.93,9,0.025
scz,DGKH,11.92,8,0.0225
scz,SLC39A8,11.91,7,0.02
scz,MTOR,11.9,6,0.0175
scz,ADIPOQ,11.89,5,0.015
scz,STX1A,11.88,4,0.0125
scz,CCL2,11.88,4,0.0125
scz,SATB2,11.88,4,0.0125
scz,AVP,11.87,3,0.01
scz,IGF1,11.87,3,0.01
scz,ADRA1D,11.87,3,0.01
scz,CFL1,11.87,3,0.01
scz,CLU,11.86,2,0.0075
scz,DNMT3B,11.83,1,0.005
scz,SLC39A12,11.83,1,0.005
Alcohol,ALDH2,31.0975,225,0.8828125
Alcohol,DRD2,23.025,195,0.765625
Alcohol,ADH1C,253.693333333333,252,0.98828125
Alcohol,SLC6A4,20.96,170,0.66796875
Alcohol,GGT1,25.9125,210,0.82421875
Alcohol,GPT,25.76,209,0.8203125
Alcohol,DRD3,17.385,110,0.43359375
Alcohol,ADH1B,252.67,251,0.984375
Alcohol,GABRA2,352.865,254,0.99609375
Alcohol,CYP2E1,23.075,196,0.76953125
Alcohol,BDNF,14.395,70,0.27734375
Alcohol,DRD1,15.72,86,0.33984375
Alcohol,HTR2A,341.38,253,0.9921875
Alcohol,GRIN2B,15.945,92,0.36328125
Alcohol,ANKK1,13.97,65,0.2578125
Alcohol,HTR3A,15.76,88,0.34765625
Alcohol,HTR1A,14.255,68,0.26953125
Alcohol,TF,19.8033333333333,139,0.546875
Alcohol,GRM5,12.69,45,0.1796875
Alcohol,GABBR1,14.615,74,0.29296875
Alcohol,CYP3A4,17.28,108,0.42578125
Alcohol,HTR1B,16.2,96,0.37890625
Alcohol,HTR2C,15.09,78,0.30859375
Alcohol,PPM1G,11.65,19,0.078125
Alcohol,GABRG2,12.335,34,0.13671875
Alcohol,ALDH9A1,16.58,99,0.390625
Alcohol,GABBR2,11.29,18,0.07421875
Alcohol,CYP2C19,11.19,17,0.0703125
Alcohol,ABCB7,17.9666666666667,118,0.46484375
Alcohol,MTHFR,11.1,16,0.06640625
Alcohol,SLC17A5,20.9825,171,0.671875
Alcohol,OPRM1,17.19,105,0.4140625
Alcohol,GATA4,15.695,85,0.3359375
Alcohol,GLP1R,10.66,14,0.05859375
Alcohol,PIP5K1C,10.07,12,0.05078125
Alcohol,MIR27B,9.74,11,0.046875
Alcohol,HFE,21.7966666666667,181,0.7109375
Alcohol,H2AC18,9.36,10,0.04296875
Alcohol,SLC6A3,15.035,77,0.3046875
Alcohol,COMT,14.075,67,0.265625
Alcohol,WASF1,8.74,9,0.0390625
Alcohol,WASF2,8.71,8,0.03515625
Alcohol,MIR199A1,12.215,29,0.1171875
Alcohol,CREB1,10.295,13,0.0546875
Alcohol,CCR6,8.15,7,0.03125
Alcohol,GAL,7.86,6,0.02734375
Alcohol,CRH,10.815,15,0.0625
Alcohol,SLC27A5,7.66,5,0.0234375
Alcohol,AKR1A1,15.66,83,0.328125
Alcohol,ALB,25.9833333333333,211,0.828125
Alcohol,CRHR1,12.695,46,0.18359375
Alcohol,GGT2,7.47,4,0.01953125
Alcohol,GGTLC3,7.47,4,0.01953125
Alcohol,CD4,7.43,3,0.015625
Alcohol,KDM4C,7.4,2,0.01171875
Alcohol,COG2,7.35,1,0.0078125
Alcohol,TAS2R16,55.19,244,0.95703125
Alcohol,OPRK1,25.36,208,0.81640625
Alcohol,ADH4,22.24,185,0.7265625
Alcohol,ADH7,21.94,182,0.71484375
Alcohol,CHRNA6,21.68,179,0.703125
Alcohol,GABRR2,21.03,173,0.6796875
Alcohol,MAOA,20.89,169,0.6640625
Alcohol,NRXN3,20.86,168,0.66015625
Alcohol,DRD4,20.35,156,0.61328125
Alcohol,NPY,17.755,116,0.45703125
Alcohol,ALDH1A1,19.52,132,0.51953125
Alcohol,TPH1,19.46,130,0.51171875
Alcohol,MAOB,19.03,122,0.48046875
Alcohol,POMC,18.94,121,0.4765625
Alcohol,CNR1,17.88,117,0.4609375
Alcohol,CHRM2,17.62,114,0.44921875
Alcohol,PDYN,17.46,112,0.44140625
Alcohol,DBH,17.21,106,0.41796875
Alcohol,OPRD1,16.26,97,0.3828125
Alcohol,GRIN2A,15.98,93,0.3671875
Alcohol,FAAH,15.84,90,0.35546875
Alcohol,OPRL1,15.68,84,0.33203125
Alcohol,GABRB3,15.68,84,0.33203125
Alcohol,TSPO,15.39,80,0.31640625
Alcohol,GHRL,15.32,79,0.3125
Alcohol,PNOC,14.93,76,0.30078125
Alcohol,TPH2,14.76,75,0.296875
Alcohol,SLC18A2,14.55,73,0.2890625
Alcohol,CCK,14.53,72,0.28515625
Alcohol,GAD1,14.45,71,0.28125
Alcohol,GRIN1,14.28,69,0.2734375
Alcohol,NGF,13.97,66,0.26171875
Alcohol,SNCA,13.9,64,0.25390625
Alcohol,GABRG1,13.74,63,0.25
Alcohol,ADH5,13.74,63,0.25
Alcohol,ADH6,13.64,62,0.24609375
Alcohol,ADH1A,13.58,61,0.2421875
Alcohol,GAD2,13.48,60,0.23828125
Alcohol,GABRB1,13.45,59,0.234375
Alcohol,CHRNA5,13.4,58,0.23046875
Alcohol,GABRA1,13.33,57,0.2265625
Alcohol,FYN,13.31,56,0.22265625
Alcohol,NR4A2,13.29,55,0.21875
Alcohol,GABRA6,13.18,54,0.21484375
Alcohol,KIAA0040,13.18,54,0.21484375
Alcohol,DRD5,13.12,53,0.2109375
Alcohol,CHRNB4,12.99,52,0.20703125
Alcohol,GABRB2,12.9,51,0.203125
Alcohol,IL1RN,12.87,50,0.19921875
Alcohol,CHRNA3,12.85,49,0.1953125
Alcohol,TTC12,12.82,48,0.19140625
Alcohol,GRM8,12.78,47,0.1875
Alcohol,CCKAR,12.68,44,0.17578125
Alcohol,GABRG3,12.61,43,0.171875
Alcohol,CHRNB3,12.6,42,0.16796875
Alcohol,HTR3B,12.6,42,0.16796875
Alcohol,LEP,19.9266666666667,144,0.56640625
Alcohol,IL1B,17.53,113,0.4453125
Alcohol,GABRA4,12.52,41,0.1640625
Alcohol,HCRT,12.5,40,0.16015625
Alcohol,GRIK1,12.5,40,0.16015625
Alcohol,SLC6A2,12.49,39,0.15625
Alcohol,TACR1,12.48,38,0.15234375
Alcohol,CCKBR,12.48,38,0.15234375
Alcohol,GRIK3,12.41,37,0.1484375
Alcohol,TH,12.37,36,0.14453125
Alcohol,HOMER2,12.35,35,0.140625
Alcohol,HTR7,12.32,33,0.1328125
Alcohol,GRM2,12.31,32,0.12890625
Alcohol,PKNOX2,12.27,31,0.125
Alcohol,OXT,12.26,30,0.12109375
Alcohol,SLC1A2,12.26,30,0.12109375
Alcohol,ZNF699,12.18,28,0.11328125
Alcohol,TNF,21.645,178,0.69921875
Alcohol,SDHAF3,12.11,27,0.109375
Alcohol,CHRNA4,12.11,27,0.109375
Alcohol,PHF3,12.11,27,0.109375
Alcohol,PRL,12.1,26,0.10546875
Alcohol,ACE,12,25,0.1015625
Alcohol,AUTS2,11.93,24,0.09765625
Alcohol,MPDZ,11.85,23,0.09375
Alcohol,PPARG,11.79,22,0.08984375
Alcohol,ALDH1B1,11.78,21,0.0859375
Alcohol,SERINC2,11.74,20,0.08203125
Alcohol,MEG3,152.5,245,0.9609375
Alcohol,PRKCSH,54.21,243,0.953125
Alcohol,PKHD1,41.96,242,0.94921875
Alcohol,SERPINA1,34.485,231,0.90625
Alcohol,GANAB,40.79,241,0.9453125
Alcohol,DLAT,38.27,240,0.94140625
Alcohol,ABCB11,37.21,239,0.9375
Alcohol,PNPLA3,36.12,238,0.93359375
Alcohol,F2,35.93,237,0.9296875
Alcohol,PKD1,35.47,236,0.92578125
Alcohol,SEC63,35.06,235,0.921875
Alcohol,HSD3B7,34.87,233,0.9140625
Alcohol,FAH,24.975,205,0.8046875
Alcohol,ADIPOQ,27.19,215,0.84375
Alcohol,INS,33.21,230,0.90234375
Alcohol,LRP5,32.24,228,0.89453125
Alcohol,MARS1,31.85,227,0.890625
Alcohol,ABCB4,31.36,226,0.88671875
Alcohol,KRT18,34.705,232,0.91015625
Alcohol,PKD2,30.8,224,0.87890625
Alcohol,NR1H4,30.2,223,0.875
Alcohol,AFP,33.18,229,0.8984375
Alcohol,ATP8B1,29.82,222,0.87109375
Alcohol,DNAJB11,29.24,221,0.8671875
Alcohol,PPARA,29.21,220,0.86328125
Alcohol,SERPINA3,24.22,200,0.78515625
Alcohol,ALG8,29.19,219,0.859375
Alcohol,KRT8,34.915,234,0.91796875
Alcohol,NDUFB9,28.63,218,0.85546875
Alcohol,HGF,26.805,214,0.83984375
Alcohol,GOLM1,27.53,216,0.84765625
Alcohol,NDUFS1,26.48,213,0.8359375
Alcohol,FAS,26.3,212,0.83203125
Alcohol,F3,21.98,183,0.71875
Alcohol,ADIPOR2,24.75,204,0.80078125
Alcohol,SLC25A13,24.4,202,0.79296875
Alcohol,CP,20.47,160,0.62890625
Alcohol,IL6,23.88,199,0.78125
Alcohol,ALPP,23.75,198,0.77734375
Alcohol,TNFRSF1A,23.7,197,0.7734375
Alcohol,IFNA1,27.56,217,0.8515625
Alcohol,LEPR,19.49,131,0.515625
Alcohol,IRS1,22.8,193,0.7578125
Alcohol,SEPSECS,22.72,192,0.75390625
Alcohol,AKT1,22.7,191,0.75
Alcohol,CASP3,22.37,188,0.73828125
Alcohol,TGFB1,22.875,194,0.76171875
Alcohol,SREBF1,22.32,187,0.734375
Alcohol,MAPK8,22.29,186,0.73046875
Alcohol,CXCL8,22.22,184,0.72265625
Alcohol,CYCS,21.7,180,0.70703125
Alcohol,FASLG,21.52,177,0.6953125
Alcohol,IL1A,21.25,175,0.6875
Alcohol,UGT1A1,21.21,174,0.68359375
Alcohol,THPO,22.48,190,0.74609375
Alcohol,ABCC2,21,172,0.67578125
Alcohol,DDIT3,20.77,167,0.65625
Alcohol,MLXIPL,20.69,166,0.65234375
Alcohol,RELA,20.64,165,0.6484375
Alcohol,TTR,18.88,120,0.47265625
Alcohol,PPIG,20.57,164,0.64453125
Alcohol,MAP3K5,20.54,163,0.640625
Alcohol,XBP1,20.51,162,0.63671875
Alcohol,MIR122,19.44,129,0.5078125
Alcohol,GSK3B,20.44,159,0.625
Alcohol,NDUFS4,20.39,158,0.62109375
Alcohol,NDUFS3,20.37,157,0.6171875
Alcohol,NDUFS7,20.31,155,0.609375
Alcohol,BAX,20.25,154,0.60546875
Alcohol,NDUFA6,20.25,154,0.60546875
Alcohol,RETN,19.745,136,0.53515625
Alcohol,SLPI,20.24,153,0.6015625
Alcohol,IL6R,20.23,152,0.59765625
Alcohol,EIF2S1,20.17,151,0.59375
Alcohol,TJP2,20.16,150,0.58984375
Alcohol,NR1H3,20.11,149,0.5859375
Alcohol,NDUFA9,20.07,148,0.58203125
Alcohol,IRS2,20.05,147,0.578125
Alcohol,NDUFS2,20.03,146,0.57421875
Alcohol,ADIPOR1,20.03,146,0.57421875
Alcohol,AKR1D1,20.02,145,0.5703125
Alcohol,ATF4,19.89,143,0.5625
Alcohol,NFKB1,19.86,142,0.55859375
Alcohol,KRT19,19.82,140,0.55078125
Alcohol,NDUFA2,19.79,137,0.5390625
Alcohol,RXRA,19.73,135,0.53125
Alcohol,IFNA2,19.69,134,0.52734375
Alcohol,ATP7B,17.705,115,0.453125
Alcohol,SLC10A1,19.41,128,0.50390625
Alcohol,NDUFB8,19.3,127,0.5
Alcohol,INSR,19.3,127,0.5
Alcohol,NDUFA13,19.28,126,0.49609375
Alcohol,FECH,19.26,125,0.4921875
Alcohol,SEC61B,19.16,124,0.48828125
Alcohol,HADHA,19.06,123,0.484375
Alcohol,FARSB,400,255,1
Alcohol,HULC,155.81,250,0.98046875
Alcohol,APTR,154.9,249,0.9765625
Alcohol,HOTAIR,154.69,248,0.97265625
Alcohol,GAS5,154.27,247,0.96875
Alcohol,MALAT1,153.63,246,0.96484375
Alcohol,REN,25.23,207,0.8125
Alcohol,SERPINC1,25.03,206,0.80859375
Alcohol,EDN1,24.74,203,0.796875
Alcohol,NPPA,24.39,201,0.7890625
Alcohol,GPC3,22.47,189,0.7421875
Alcohol,TIMP1,22.37,188,0.73828125
Alcohol,MAT1A,21.41,176,0.69140625
Alcohol,AQP2,20.49,161,0.6328125
Alcohol,IGFBP3,19.89,143,0.5625
Alcohol,UTS2,19.83,141,0.5546875
Alcohol,SST,19.8,138,0.54296875
Alcohol,SERPINF2,19.67,133,0.5234375
Alcohol,CCN2,18.79,119,0.46875
Alcohol,AVP,17.41,111,0.4375
Alcohol,KLKB1,17.3,109,0.4296875
Alcohol,HP,17.24,107,0.421875
Alcohol,ADM,17.1,104,0.41015625
Alcohol,RBP4,17.08,103,0.40625
Alcohol,TALDO1,16.76,102,0.40234375
Alcohol,GAPDH,16.64,101,0.3984375
Alcohol,LBP,16.63,100,0.39453125
Alcohol,CYP1A2,16.47,98,0.38671875
Alcohol,ADAMTS13,16.19,95,0.375
Alcohol,HLA-DRB1,16.05,94,0.37109375
Alcohol,SLC2A4,15.88,91,0.359375
Alcohol,AGL,15.82,89,0.3515625
Alcohol,TLR2,15.72,87,0.34375
Alcohol,CYP2A6,15.72,87,0.34375
Alcohol,SCT,15.64,82,0.32421875
Alcohol,GLS,15.54,81,0.3203125
CAD,MIR199A1,15.17,179,0.553846153846154
CAD,MIR126,16.8433333333333,225,0.695384615384615
CAD,MIR21,33.2766666666667,294,0.907692307692308
CAD,SERPINA3,15.5533333333333,193,0.596923076923077
CAD,MIR146A,14.565,149,0.461538461538462
CAD,H2AC18,11.55,44,0.138461538461538
CAD,MIR17,14.155,120,0.372307692307692
CAD,CCR6,11.34,43,0.135384615384615
CAD,MIR590,11.05,42,0.132307692307692
CAD,MIR499A,146.653333333333,301,0.929230769230769
CAD,MIR423,14.9633333333333,172,0.532307692307692
CAD,MIR33A,10.93,41,0.129230769230769
CAD,MIR133A1,14.46,140,0.433846153846154
CAD,REN,15.6333333333333,196,0.606153846153846
CAD,MIR221,13.1,61,0.190769230769231
CAD,ACE,30.4866666666667,291,0.898461538461538
CAD,MIR34A,14.08,116,0.36
CAD,MIR24-1,10.7,40,0.126153846153846
CAD,MIR210,186.59,308,0.950769230769231
CAD,MIR155,13.44,80,0.249230769230769
CAD,MIR223,14.2066666666667,123,0.381538461538462
CAD,MIR144,10.62,39,0.123076923076923
CAD,MIR145,10.62,39,0.123076923076923
CAD,MIR143,10.61,38,0.12
CAD,MIR142,10.59,37,0.116923076923077
CAD,MIR150,14.88,168,0.52
CAD,MIR22,14.29,130,0.403076923076923
CAD,MIR27A,12.895,54,0.169230769230769
CAD,MIR29B1,13.045,56,0.175384615384615
CAD,MIR342,10.5,36,0.113846153846154
CAD,MIR181A1,12.64,52,0.163076923076923
CAD,CRP,20.6666666666667,264,0.815384615384615
CAD,MIR30A,13.08,58,0.181538461538462
CAD,INS,13.42,78,0.243076923076923
CAD,MIR486-1,13.94,108,0.335384615384615
CAD,MIR222,10.29,35,0.110769230769231
CAD,MIR33B,10.29,35,0.110769230769231
CAD,MIR23A,10.22,34,0.107692307692308
CAD,ICOSLG,10.16,33,0.104615384615385
CAD,MIR140,10.15,32,0.101538461538462
CAD,MIR517A,10.07,31,0.0984615384615385
CAD,APOE,32.415,293,0.904615384615385
CAD,MIR296,9.96,30,0.0953846153846154
CAD,MIR27B,9.96,30,0.0953846153846154
CAD,NOS3,16.48,218,0.673846153846154
CAD,ALB,12.905,55,0.172307692307692
CAD,MIR122,9.92,29,0.0923076923076923
CAD,MIR10A,9.89,28,0.0892307692307692
CAD,IL6,14.15,119,0.369230769230769
CAD,APOB,16.8566666666667,226,0.698461538461538
CAD,MIR125B1,9.85,27,0.0861538461538462
CAD,MIR125A,9.83,26,0.0830769230769231
CAD,MIR124-1,9.81,25,0.08
CAD,EDN1,16.8766666666667,227,0.701538461538462
CAD,MIR191,9.71,24,0.0769230769230769
CAD,MIR483,12.085,47,0.147692307692308
CAD,TNF,13.6766666666667,93,0.289230769230769
CAD,MIR146B,9.66,23,0.0738461538461539
CAD,MIR214,9.66,23,0.0738461538461539
CAD,MIR25,9.65,22,0.0707692307692308
CAD,APOA1,16.54,219,0.676923076923077
CAD,MIR28,9.63,21,0.0676923076923077
CAD,LPA,15.71,201,0.621538461538461
CAD,MIR132,9.56,20,0.0646153846153846
CAD,MIRLET7D,9.53,19,0.0615384615384615
CAD,COG2,14.13,117,0.363076923076923
CAD,MIR9-1,9.47,18,0.0584615384615385
CAD,MIR455,9.47,18,0.0584615384615385
CAD,MIR675,9.46,17,0.0553846153846154
CAD,MIR15A,9.43,16,0.0523076923076923
CAD,VEGFA,12.73,53,0.166153846153846
CAD,MIR188,9.41,15,0.0492307692307692
CAD,MIR15B,9.41,15,0.0492307692307692
CAD,VCAM1,12.31,49,0.153846153846154
CAD,ADIPOQ,14.445,139,0.430769230769231
CAD,AGTR1,16.6833333333333,223,0.689230769230769
CAD,IL1B,12.535,51,0.16
CAD,MIR106B,9.36,14,0.0461538461538462
CAD,MIR574,9.35,13,0.0430769230769231
CAD,PLG,13.8566666666667,106,0.329230769230769
CAD,CCL2,12.475,50,0.156923076923077
CAD,MIR30E,9.32,12,0.04
CAD,TNNI3,17.49,239,0.738461538461539
CAD,MIR141,9.31,11,0.0369230769230769
CAD,MIR30B,9.25,10,0.0338461538461538
CAD,MIR26B,9.24,9,0.0307692307692308
CAD,ICAM1,12.28,48,0.150769230769231
CAD,MIR135A1,9.22,8,0.0276923076923077
CAD,LEP,11.875,45,0.141538461538462
CAD,MIRLET7F1,9.21,7,0.0246153846153846
CAD,MIR93,9.21,7,0.0246153846153846
CAD,MIR29C,9.19,6,0.0215384615384615
CAD,MIR149,9.18,5,0.0184615384615385
CAD,SERPINE1,18.4733333333333,249,0.769230769230769
CAD,MIR196A1,9.15,4,0.0153846153846154
CAD,MIRLET7G,9.13,3,0.0123076923076923
CAD,MIRLET7A1,9.12,2,0.00923076923076923
CAD,CFHR2,9.12,2,0.00923076923076923
CAD,F3,18.02,244,0.753846153846154
CAD,P2RY12,15.705,200,0.618461538461539
CAD,MIR18A,9.06,1,0.00615384615384615
CAD,VWF,16.65,221,0.683076923076923
CAD,PPARG,11.925,46,0.144615384615385
CAD,MIAT,859.87,324,1
CAD,OLR1,369.23,311,0.96
CAD,LGALS2,714.21,323,0.996923076923077
CAD,LTA,706.92,322,0.993846153846154
CAD,LRP8,705.4,321,0.990769230769231
CAD,F7,360.15,310,0.956923076923077
CAD,ESR1,696.74,320,0.987692307692308
CAD,GCLC,695.86,319,0.984615384615385
CAD,PSMA6,695.82,318,0.981538461538462
CAD,GCLM,686.53,317,0.978461538461538
CAD,ITGB3,686.48,316,0.975384615384615
CAD,F13A1,673.45,315,0.972307692307692
CAD,TNFSF4,661.87,314,0.969230769230769
CAD,GUCY1A1,412.57,313,0.966153846153846
CAD,CCT7,411.84,312,0.963076923076923
CAD,CDKN2B-AS1,159.63,306,0.944615384615385
CAD,MT-LIPCAR,156.42,305,0.941538461538462
CAD,MIR208A,64.42,300,0.926153846153846
CAD,MIR133B,62.95,299,0.923076923076923
CAD,MCI2,58.16,298,0.92
CAD,MEF2A,44.18,296,0.913846153846154
CAD,PLAT,36.67,295,0.910769230769231
CAD,SORT1,32.05,292,0.901538461538462
CAD,PALLD,29.94,290,0.895384615384615
CAD,ALOX5AP,29.19,289,0.892307692307692
CAD,PON1,29.04,288,0.889230769230769
CAD,CXCL12,26.23,287,0.886153846153846
CAD,PTGIS,25.57,285,0.88
CAD,F10,20.255,260,0.803076923076923
CAD,GJA4,25.41,284,0.876923076923077
CAD,NPPB,24.81,282,0.870769230769231
CAD,MB,25.795,286,0.883076923076923
CAD,POSTN,25.14,283,0.873846153846154
CAD,PIK3C2A,24.48,281,0.867692307692308
CAD,EMC10,24.09,280,0.864615384615385
CAD,PROCR,23.95,279,0.861538461538462
CAD,AGER,23.79,278,0.858461538461538
CAD,MMP3,23.27,275,0.849230769230769
CAD,TNNT2,23.32,276,0.852307692307692
CAD,SERPINC1,22.27,272,0.84
CAD,THBD,19.685,256,0.790769230769231
CAD,CKM,19.805,257,0.793846153846154
CAD,PHACTR1,22.63,274,0.846153846153846
CAD,CIITA,22.6,273,0.843076923076923
CAD,FABP3,23.6,277,0.855384615384615
CAD,CD14,21.95,270,0.833846153846154
CAD,SELP,22.04,271,0.836923076923077
CAD,HMGCR,18.67,250,0.772307692307692
CAD,NPPA,21.44,269,0.830769230769231
CAD,LRP6,20.96,268,0.827692307692308
CAD,PTGS2,20.88,267,0.824615384615385
CAD,MYDGF,20.81,266,0.821538461538462
CAD,BRINP3,20.74,265,0.818461538461538
CAD,WRN,20.62,263,0.812307692307692
CAD,S100B,20.62,263,0.812307692307692
CAD,MTHFR,20.49,262,0.809230769230769
CAD,KNG1,20.46,261,0.806153846153846
CAD,ABCC9,20.1,259,0.8
CAD,CETP,20.1,259,0.8
CAD,F5,19.94,258,0.796923076923077
CAD,FGA,19.05,252,0.778461538461538
CAD,AGT,19.57,255,0.787692307692308
CAD,GP6,19.52,254,0.784615384615385
CAD,PCSK2,19.39,253,0.781538461538462
CAD,AGTR2,18.94,251,0.775384615384615
CAD,PF4,17.475,238,0.735384615384615
CAD,GATA4,18.35,248,0.766153846153846
CAD,APOC3,18.25,246,0.76
CAD,ABRAXAS2,18.15,245,0.756923076923077
CAD,FGB,17.97,243,0.750769230769231
CAD,NR3C2,16.465,217,0.670769230769231
CAD,ITGA2B,17.38,236,0.729230769230769
CAD,PTGS1,17.78,241,0.744615384615385
CAD,ADM,17.115,232,0.716923076923077
CAD,THBS4,17.47,237,0.732307692307692
CAD,CKB,18.35,248,0.766153846153846
CAD,MYL3,18.3,247,0.763076923076923
CAD,PAPPA,17.29,235,0.726153846153846
CAD,PECAM1,16.905,228,0.704615384615385
CAD,LDLR,17.19,234,0.723076923076923
CAD,CTF1,17.07,231,0.713846153846154
CAD,GNB3,16.94,229,0.707692307692308
CAD,CST3,15.945,208,0.643076923076923
CAD,HIF1A,16.74,224,0.692307692307692
CAD,CXCR4,16.68,222,0.686153846153846
CAD,F2R,16.65,220,0.68
CAD,PPBP,15.845,206,0.636923076923077
CAD,ITGA2,16.4,216,0.667692307692308
CAD,FN1,15.8,203,0.627692307692308
CAD,ADRB2,16.38,215,0.664615384615385
CAD,ADRB1,15.8,203,0.627692307692308
CAD,CDH5,17.125,233,0.72
CAD,GP1BA,16.09,213,0.658461538461538
CAD,SELL,16.08,212,0.655384615384615
CAD,PDE5A,16.08,212,0.655384615384615
CAD,RETN,16.08,212,0.655384615384615
CAD,ABCA1,16.06,211,0.652307692307692
CAD,GJA1,16.06,211,0.652307692307692
CAD,ANXA5,16.05,210,0.649230769230769
CAD,PTX3,17.055,230,0.710769230769231
CAD,PLA2G7,16.02,209,0.646153846153846
CAD,ITGAM,15.46,188,0.581538461538462
CAD,CYP2C9,15.85,207,0.64
CAD,MMP9,17.895,242,0.747692307692308
CAD,ENG,15.78,202,0.624615384615385
CAD,CCL5,15.67,199,0.615384615384615
CAD,F2,15.66,198,0.612307692307692
CAD,MYL4,15.83,205,0.633846153846154
CAD,ALDH2,15.65,197,0.609230769230769
CAD,ANGPT1,15.325,182,0.563076923076923
CAD,F8,15.59,195,0.603076923076923
CAD,APOA5,15.53,192,0.593846153846154
CAD,ACE2,15.47,189,0.584615384615385
CAD,CCN2,15.45,187,0.578461538461538
CAD,IL10,15.45,187,0.578461538461538
CAD,ADD1,15.43,186,0.575384615384615
CAD,NPY,15.43,186,0.575384615384615
CAD,ADAMTS13,15.48,190,0.587692307692308
CAD,SCARB1,15.42,185,0.572307692307692
CAD,CASP1,15.39,184,0.569230769230769
CAD,CCR5,15.34,183,0.566153846153846
CAD,KCNJ5,15.32,181,0.56
CAD,CYCS,15.12,178,0.550769230769231
CAD,TLR4,15.11,177,0.547692307692308
CAD,MME,15.09,176,0.544615384615385
CAD,APOA2,15.07,175,0.541538461538462
CAD,PGF,15.05,174,0.538461538461538
CAD,GHRL,15.05,174,0.538461538461538
CAD,SRC,14.99,173,0.535384615384615
CAD,SHBG,14.92,171,0.529230769230769
CAD,CHKA,14.92,171,0.529230769230769
CAD,CYP2C19,14.91,170,0.526153846153846
CAD,MMP2,14.91,170,0.526153846153846
CAD,NPPC,14.9,169,0.523076923076923
CAD,PCSK9,14.88,168,0.52
CAD,CYBA,14.86,167,0.516923076923077
CAD,PPIG,14.86,167,0.516923076923077
CAD,CXCL8,14.85,166,0.513846153846154
CAD,LTA4H,14.84,165,0.510769230769231
CAD,TNNT1,14.84,165,0.510769230769231
CAD,F11,14.84,165,0.510769230769231
CAD,CD34,14.82,164,0.507692307692308
CAD,SELE,15.805,204,0.630769230769231
CAD,LIPC,14.79,163,0.504615384615385
CAD,CCL11,14.77,162,0.501538461538461
CAD,LCAT,14.76,161,0.498461538461538
CAD,MPO,14.76,161,0.498461538461538
CAD,NPR1,14.76,161,0.498461538461538
CAD,COL3A1,14.75,160,0.495384615384615
CAD,AVP,14.74,159,0.492307692307692
CAD,CASP3,14.73,158,0.489230769230769
CAD,CCL3,14.68,157,0.486153846153846
CAD,MGP,14.67,156,0.483076923076923
CAD,IGF1,14.66,155,0.48
CAD,SELPLG,14.64,154,0.476923076923077
CAD,CYP11B2,14.61,153,0.473846153846154
CAD,GRK2,14.6,152,0.470769230769231
CAD,DPP4,14.58,151,0.467692307692308
CAD,TIMP1,14.57,150,0.464615384615385
CAD,SOD3,14.57,150,0.464615384615385
CAD,IGFBP1,14.56,148,0.458461538461538
CAD,ADRA2B,14.54,147,0.455384615384615
CAD,MAPK14,14.53,146,0.452307692307692
CAD,THBS2,14.52,145,0.449230769230769
CAD,CNR1,14.5,144,0.446153846153846
CAD,CD163,14.5,144,0.446153846153846
CAD,CFH,14.49,143,0.443076923076923
CAD,IL18,14.48,142,0.44
CAD,LPL,14.47,141,0.436923076923077
CAD,SAA1,14.46,140,0.433846153846154
CAD,CLU,14.44,138,0.427692307692308
CAD,CD40LG,14.41,137,0.424615384615385
CAD,S100A1,14.37,136,0.421538461538462
CAD,APOA4,14.36,135,0.418461538461538
CAD,DCN,14.36,135,0.418461538461538
CAD,PIK3CG,14.35,134,0.415384615384615
CAD,ENPP1,14.35,134,0.415384615384615
CAD,HGF,14.35,134,0.415384615384615
CAD,CSF3,14.33,133,0.412307692307692
CAD,SLC6A4,14.31,132,0.409230769230769
CAD,PYGB,14.3,131,0.406153846153846
CAD,PON2,14.28,129,0.4
CAD,CD59,14.28,129,0.4
CAD,HTR2A,14.27,128,0.396923076923077
CAD,NPR2,14.26,127,0.393846153846154
CAD,LGALS3,14.23,126,0.390769230769231
CAD,HFE,14.23,126,0.390769230769231
CAD,AKT1,14.22,125,0.387692307692308
CAD,GSR,14.21,124,0.384615384615385
CAD,PPARA,14.18,122,0.378461538461538
CAD,IL6R,14.16,121,0.375384615384615
CAD,BDKRB2,14.16,121,0.375384615384615
CAD,KDR,14.14,118,0.366153846153846
CAD,NOS1,14.14,118,0.366153846153846
CAD,MMP13,14.13,117,0.363076923076923
CAD,TGFB1,14.08,116,0.36
CAD,CA3,15.56,194,0.6
CAD,HMOX1,14.07,115,0.356923076923077
CAD,LRP1,14.07,115,0.356923076923077
CAD,CAT,14.06,114,0.353846153846154
CAD,CCR2,14.06,114,0.353846153846154
CAD,MMP1,14.04,113,0.350769230769231
CAD,UTS2,14.03,112,0.347692307692308
CAD,SERPINF2,17.505,240,0.741538461538462
CAD,FGF2,14.02,111,0.344615384615385
CAD,EPO,14,110,0.341538461538462
CAD,GPT,14,110,0.341538461538462
CAD,F9,13.96,109,0.338461538461538
CAD,MYH6,13.94,108,0.335384615384615
CAD,GDF15,13.92,107,0.332307692307692
CAD,MIR208B,189.03,309,0.953846153846154
CAD,TLR2,13.85,105,0.326153846153846
CAD,SP1,13.85,105,0.326153846153846
CAD,ITGAL,13.83,104,0.323076923076923
CAD,SERPING1,13.83,104,0.323076923076923
CAD,COX5A,13.83,104,0.323076923076923
CAD,PDE4D,13.82,103,0.32
CAD,MMP7,13.81,102,0.316923076923077
CAD,SULT1A3,13.81,102,0.316923076923077
CAD,SCN5A,13.81,102,0.316923076923077
CAD,HP,13.8,101,0.313846153846154
CAD,C1S,13.77,100,0.310769230769231
CAD,SIRT1,13.76,99,0.307692307692308
CAD,DNASE1,13.75,98,0.304615384615385
CAD,CD55,13.74,97,0.301538461538462
CAD,ELN,13.72,96,0.298461538461538
CAD,MTR,13.7,95,0.295384615384615
CAD,COMT,13.69,94,0.292307692307692
CAD,IL1RN,13.69,94,0.292307692307692
CAD,THBS1,13.69,94,0.292307692307692
CAD,MMRN1,13.67,92,0.286153846153846
CAD,HMGB1,13.66,91,0.283076923076923
CAD,HSPA8,13.65,90,0.28
CAD,LCN2,13.64,89,0.276923076923077
CAD,GAPDH,13.62,88,0.273846153846154
CAD,IFNG,13.52,87,0.270769230769231
CAD,PTPRC,13.51,86,0.267692307692308
CAD,TP53,13.49,85,0.264615384615385
CAD,IL1A,13.48,84,0.261538461538462
CAD,ITGB1,13.48,84,0.261538461538462
CAD,CD40,13.47,83,0.258461538461538
CAD,HTR3A,13.46,82,0.255384615384615
CAD,CDKN2A,13.46,82,0.255384615384615
CAD,NF2,13.45,81,0.252307692307692
CAD,MEF2C,13.44,80,0.249230769230769
CAD,TNFRSF11B,13.43,79,0.246153846153846
CAD,MYH7,13.39,77,0.24
CAD,CTNNB1,13.38,76,0.236923076923077
CAD,STAT3,13.37,75,0.233846153846154
CAD,IL17A,13.36,74,0.230769230769231
CAD,AHSG,13.33,73,0.227692307692308
CAD,SPP1,13.33,73,0.227692307692308
CAD,APLN,13.31,72,0.224615384615385
CAD,IL4,13.31,72,0.224615384615385
CAD,IL33,13.29,71,0.221538461538462
CAD,ALOX5,13.26,70,0.218461538461538
CAD,APOH,13.26,70,0.218461538461538
CAD,PROM1,13.23,69,0.215384615384615
CAD,CDKN2B,13.21,68,0.212307692307692
CAD,TIMP2,13.21,68,0.212307692307692
CAD,ARG1,13.2,67,0.209230769230769
CAD,FLT1,13.19,66,0.206153846153846
CAD,KIF6,13.17,65,0.203076923076923
CAD,SERPINB2,13.16,64,0.2
CAD,MAPK8,13.16,64,0.2
CAD,KIF2C,13.16,64,0.2
CAD,LBP,13.13,63,0.196923076923077
CAD,CPB2,13.11,62,0.193846153846154
CAD,TNFRSF1A,13.1,60,0.187692307692308
CAD,MASP2,13.09,59,0.184615384615385
CAD,TFPI,13.09,59,0.184615384615385
CAD,CD2,13.08,58,0.181538461538462
CAD,IL6ST,13.08,58,0.181538461538462
CAD,KITLG,13.08,58,0.181538461538462
CAD,TEK,13.06,57,0.178461538461538
CAD,HSPA4,13.06,57,0.178461538461538
CAD,UCA1,159.93,307,0.947692307692308
CAD,SLC16A1-AS1,156.16,304,0.938461538461538
CAD,TNFRSF14-AS1,156.16,304,0.938461538461538
CAD,MHRT,155.33,303,0.935384615384615
CAD,KCNQ1OT1,154.05,302,0.932307692307692
CAD,MIR29A,55.54,297,0.916923076923077
CAD,FABP12,16.26,214,0.661538461538462
CAD,MIR92A1,15.51,191,0.590769230769231
CAD,SAA4,15.24,180,0.556923076923077
LDL,FADS1,156.64,140,0.986013986013986
LDL,INS,14.0833333333333,111,0.783216783216783
LDL,APOB,26.0366666666667,135,0.951048951048951
LDL,COG2,21.76,130,0.916083916083916
LDL,ADIPOQ,12.5566666666667,98,0.692307692307692
LDL,PPARA,13.875,108,0.762237762237762
LDL,APOA1,20.37,128,0.902097902097902
LDL,LPL,19.665,127,0.895104895104895
LDL,HMGCR,23.075,133,0.937062937062937
LDL,APOC3,14.795,114,0.804195804195804
LDL,PPARG,13.045,101,0.713286713286713
LDL,LEP,13.115,102,0.72027972027972
LDL,CETP,22.815,131,0.923076923076923
LDL,CRP,11.5466666666667,80,0.566433566433566
LDL,APOE,28.675,137,0.965034965034965
LDL,APOA5,13.82,107,0.755244755244755
LDL,LIPC,17.93,125,0.881118881118881
LDL,LPA,18.6,126,0.888111888111888
LDL,SERPINE1,16.04,120,0.846153846153846
LDL,RETN,15.74,119,0.839160839160839
LDL,ACE,13.28,103,0.727272727272727
LDL,MTTP,17.05,123,0.867132867132867
LDL,LDLR,250.71,142,1
LDL,HNF4A,15.16,116,0.818181818181818
LDL,NR1H4,11.68,84,0.594405594405594
LDL,LCAT,16.89,122,0.86013986013986
LDL,ABCA1,17.795,124,0.874125874125874
LDL,IL6,11.08,70,0.496503496503497
LDL,PPARD,14.06,110,0.776223776223776
LDL,HSD11B1,14.05,109,0.769230769230769
LDL,SREBF1,11.0333333333333,69,0.48951048951049
LDL,LPXN,11.905,85,0.601398601398601
LDL,PLTP,13.73,106,0.748251748251748
LDL,LMNA,13.56,105,0.741258741258741
LDL,PON1,14.93,115,0.811188811188811
LDL,CNR1,12.58,99,0.699300699300699
LDL,LIPG,12.48,96,0.678321678321678
LDL,FABP2,12.42,95,0.671328671328671
LDL,USF1,12.35,93,0.657342657342657
LDL,SCARB1,12.06,87,0.615384615384615
LDL,ACACA,12.21,92,0.65034965034965
LDL,MIR122,11.675,83,0.587412587412587
LDL,SHBG,12.14,89,0.629370629370629
LDL,NR1H2,12.09,88,0.622377622377622
LDL,CYP7A1,11.2633333333333,73,0.517482517482518
LDL,INSR,12,86,0.608391608391608
LDL,APOA2,11.01,68,0.482517482517482
LDL,PLA2G7,12.205,91,0.643356643356643
LDL,C3,11.62,82,0.58041958041958
LDL,IRS1,11.55,81,0.573426573426573
LDL,SCAP,11.51,79,0.559440559440559
LDL,CCL2,9.615,45,0.321678321678322
LDL,ADRB3,11.48,78,0.552447552447552
LDL,LIPE,11.29,74,0.524475524475524
LDL,RBP4,11.25,72,0.510489510489511
LDL,GGT1,9.445,43,0.307692307692308
LDL,SELE,10.83,66,0.468531468531469
LDL,FASN,9.25,40,0.286713286713287
LDL,MIR33A,10.31,59,0.41958041958042
LDL,ADIPOR2,10.29,57,0.405594405594406
LDL,PDE5A,10.07,53,0.377622377622378
LDL,MIR126,9.91,51,0.363636363636364
LDL,TCF7L2,9.66,46,0.328671328671329
LDL,H2AC18,9.81,50,0.356643356643357
LDL,PTPN1,9.35,41,0.293706293706294
LDL,CYP21A2,9.12,39,0.27972027972028
LDL,CYP3A4,8.83,34,0.244755244755245
LDL,LIPA,11.12,71,0.503496503496504
LDL,PCSK9,240.64,141,0.993006993006993
LDL,MIR21,9.35,41,0.293706293706294
LDL,SOAT2,8.53,30,0.216783216783217
LDL,PNPLA2,43.85,139,0.979020979020979
LDL,CYP27A1,23.07,132,0.93006993006993
LDL,ABHD5,14.69,113,0.797202797202797
LDL,GALC,14.09,112,0.79020979020979
LDL,PSAP,13.55,104,0.734265734265734
LDL,SMPD2,12.39,94,0.664335664335664
LDL,MIR199A1,10.6,64,0.454545454545455
LDL,CCR6,9.45,44,0.314685314685315
LDL,GLA,9.39,42,0.300699300699301
LDL,GPT,9.75,47,0.335664335664336
LDL,MIR155,9.11,38,0.272727272727273
LDL,GBA,8.98,37,0.265734265734266
LDL,PNPLA3,8.93,36,0.258741258741259
LDL,MIR33B,8.86,35,0.251748251748252
LDL,CLN3,8.73,33,0.237762237762238
LDL,NPC1,8.67,32,0.230769230769231
LDL,SERPINA3,8.65,31,0.223776223776224
LDL,MIR181B1,8.46,29,0.20979020979021
LDL,NPC2,8.38,28,0.202797202797203
LDL,SMPD1,8.26,27,0.195804195804196
LDL,CHIT1,8.26,27,0.195804195804196
LDL,TNF,9.445,43,0.307692307692308
LDL,MCOLN1,8.2,26,0.188811188811189
LDL,CLN5,8.17,25,0.181818181818182
LDL,ARSA,8.16,24,0.174825174825175
LDL,CLN6,8.15,23,0.167832167832168
LDL,CYP2E1,8.11,22,0.160839160839161
LDL,TM6SF2,8.11,22,0.160839160839161
LDL,ALB,9.77,48,0.342657342657343
LDL,TPP1,8.07,21,0.153846153846154
LDL,MIR144,8.07,21,0.153846153846154
LDL,FGF21,8,20,0.146853146853147
LDL,MIR127,7.96,19,0.13986013986014
LDL,MIR22,7.92,18,0.132867132867133
LDL,PPT1,7.91,17,0.125874125874126
LDL,MLXIPL,7.9,16,0.118881118881119
LDL,GLB1,7.89,15,0.111888111888112
LDL,IL1B,7.88,14,0.104895104895105
LDL,SCD,7.86,13,0.0979020979020979
LDL,TLR4,7.83,12,0.0909090909090909
LDL,CLN8,7.82,11,0.0839160839160839
LDL,GGT2,7.82,11,0.0839160839160839
LDL,GGTLC3,7.82,11,0.0839160839160839
LDL,IGF2R,7.81,10,0.0769230769230769
LDL,SIRT1,7.8,9,0.0699300699300699
LDL,BLOC1S1,7.75,8,0.0629370629370629
LDL,SREBF2,9.79,49,0.34965034965035
LDL,PPARGC1A,7.71,7,0.0559440559440559
LDL,LIN9,7.65,6,0.048951048951049
LDL,UGCG,7.64,5,0.041958041958042
LDL,ASAH1,7.63,4,0.034965034965035
LDL,KRT18,7.62,3,0.027972027972028
LDL,GCG,7.62,3,0.027972027972028
LDL,MIR483,7.62,3,0.027972027972028
LDL,CPT1A,7.61,2,0.020979020979021
LDL,AKT1,7.6,1,0.013986013986014
LDL,MIR142,7.6,1,0.013986013986014
LDL,LDLRAP1,37.53,138,0.972027972027972
LDL,EPHX2,27.69,136,0.958041958041958
LDL,GHR,24.05,134,0.944055944055944
LDL,STAP1,20.56,129,0.909090909090909
LDL,PON2,16.85,121,0.853146853146853
LDL,EGF,15.65,118,0.832167832167832
LDL,APOA4,15.64,117,0.825174825174825
LDL,ABCG8,12.72,100,0.706293706293706
LDL,ABCG5,12.51,97,0.685314685314685
LDL,SOAT1,12.18,90,0.636363636363636
LDL,MYLIP,11.68,84,0.594405594405594
LDL,ESR1,11.44,77,0.545454545454545
LDL,CDKN2A,11.43,76,0.538461538461538
LDL,ANGPTL3,11.3,75,0.531468531468531
LDL,ANXA5,10.92,67,0.475524475524476
LDL,EGFR,10.62,65,0.461538461538462
LDL,LRP1,10.54,63,0.447552447552448
LDL,NOS3,10.41,62,0.440559440559441
LDL,F2,10.35,61,0.433566433566434
LDL,MPO,10.32,60,0.426573426573427
LDL,SORL1,10.3,58,0.412587412587413
LDL,COQ10A,10.25,56,0.398601398601399
LDL,TRIB1,10.24,55,0.391608391608392
LDL,NR3C1,10.1,54,0.384615384615385
LDL,ADRB2,10.03,52,0.370629370629371
